{
"meta" :{
  "type" : "COTE",
  "piff_version" : "version 0",
  "url" : "COTE-MARCHE_18990201_02.jpg",
  "pointille" : "version 1.0",
  "zoom" : "-2",
  "modele" : "largeur 2 6, hauteur 2 6, nbPix 4 21, marge x 3, yh 4, yb 4, translation x [7 12], ty 2",
  "date" : "20/3/2019"
},

"data" :[
{ "type" : "pointille",
  "polyline" : " 1540,848; 1560,846; 1580,846; 1600,844; 1622,844; 1642,842; 1664,844; 1682,842"
  },

{ "type" : "pointille",
  "polyline" : " 1682,802; 1702,800"
  },

{ "type" : "pointille",
  "polyline" : " 1722,882; 1744,880; 1764,880; 1784,880; 1804,880; 1824,878; 1846,878; 1866,876; 1886,878; 1906,876; 1926,876; 1946,874; 1968,874; 1988,872; 2008,874; 2028,872; 2050,872; 2070,872; 2092,872; 2112,870"
  },

{ "type" : "pointille",
  "polyline" : " 1722,842; 1744,842; 1764,838; 1784,840; 1804,838; 1824,838; 1846,836; 1866,836; 1886,836; 1906,834; 1926,834; 1948,834; 1966,832; 1988,832; 2008,832; 2030,832; 2050,830; 2070,832; 2090,830; 2110,830"
  },

{ "type" : "pointille",
  "polyline" : " 1742,798; 1762,800; 1784,798; 1804,798; 1824,796; 1846,796; 1866,796; 1886,794; 1906,794; 1926,792; 1946,792; 1966,792; 1988,792; 2008,792; 2028,792; 2048,790; 2070,790; 2090,788; 2112,790"
  },

{ "type" : "pointille",
  "polyline" : " 1420,932; 1440,932; 1460,930; 1480,930; 1500,930; 1520,930; 1540,930; 1562,928; 1582,928; 1602,926; 1622,926; 1644,924; 1664,924; 1684,924; 1704,922; 1724,922; 1744,920; 1766,922; 1786,920; 1806,920; 1826,920; 1846,918; 1866,918; 1888,918; 1908,916; 1928,916; 1948,914; 1968,914; 1988,914; 2010,914; 2030,912"
  },

{ "type" : "pointille",
  "polyline" : " 2070,914; 2092,912; 2112,912"
  },

{ "type" : "pointille",
  "polyline" : " 2170,876; 2192,876; 2212,876"
  },

{ "type" : "pointille",
  "polyline" : " 2190,834; 2210,834"
  },

{ "type" : "pointille",
  "polyline" : " 2252,834; 2272,832"
  },

{ "type" : "pointille",
  "polyline" : " 2252,874; 2272,874"
  },

{ "type" : "pointille",
  "polyline" : " 2252,792; 2272,792"
  },

{ "type" : "pointille",
  "polyline" : " 2252,916; 2272,916"
  },

{ "type" : "pointille",
  "polyline" : " 2334,790; 2354,790; 2374,788"
  },

{ "type" : "pointille",
  "polyline" : " 2334,872; 2356,872; 2376,870"
  },

{ "type" : "pointille",
  "polyline" : " 2414,788; 2434,786"
  },

{ "type" : "pointille",
  "polyline" : " 2416,910; 2436,910"
  },

{ "type" : "pointille",
  "polyline" : " 2416,830; 2436,828"
  },

{ "type" : "pointille",
  "polyline" : " 2416,870; 2436,868"
  },

{ "type" : "pointille",
  "polyline" : " 2496,786; 2518,786; 2538,784"
  },

{ "type" : "pointille",
  "polyline" : " 2498,908; 2518,908; 2540,906"
  },

{ "type" : "pointille",
  "polyline" : " 2498,826; 2518,826; 2538,826"
  },

{ "type" : "pointille",
  "polyline" : " 2498,868; 2518,866; 2538,866"
  },

{ "type" : "pointille",
  "polyline" : " 2578,784; 2598,782; 2620,782"
  },

{ "type" : "pointille",
  "polyline" : " 2580,824; 2600,824; 2620,824"
  },

{ "type" : "pointille",
  "polyline" : " 2580,866; 2600,864; 2620,864"
  },

{ "type" : "pointille",
  "polyline" : " 2580,906; 2600,906; 2620,904"
  },

{ "type" : "pointille",
  "polyline" : " 2766,860; 2788,860; 2808,860; 2828,860"
  },

{ "type" : "pointille",
  "polyline" : " 2766,776; 2788,774; 2808,776; 2828,776"
  },

{ "type" : "pointille",
  "polyline" : " 2768,900; 2788,900; 2808,900; 2828,904"
  },

{ "type" : "pointille",
  "polyline" : " 1362,932; 1378,934"
  },

{ "type" : "pointille",
  "polyline" : " 1598,1050; 1620,1048; 1640,1048; 1660,1046; 1680,1046; 1700,1046; 1724,1046; 1744,1046; 1764,1044; 1786,1044; 1804,1044; 1826,1042; 1846,1042; 1866,1042; 1888,1040; 1908,1038; 1928,1040; 1948,1040; 1968,1038"
  },

{ "type" : "pointille",
  "polyline" : " 1604,968; 1624,968; 1644,968; 1664,966; 1684,964; 1704,964; 1724,964; 1744,962"
  },

{ "type" : "pointille",
  "polyline" : " 1684,1088; 1704,1086; 1724,1086; 1746,1086; 1766,1084; 1786,1084; 1806,1084; 1826,1084; 1848,1082; 1868,1082; 1888,1082; 1908,1080; 1928,1080; 1948,1080; 1968,1080; 1990,1078; 2010,1078; 2030,1078; 2052,1078; 2072,1078; 2092,1078; 2112,1076"
  },

{ "type" : "pointille",
  "polyline" : " 1786,962; 1806,960; 1826,962; 1846,958; 1866,958; 1886,958; 1908,956; 1928,956; 1948,956; 1968,956; 1988,956; 2008,954; 2030,954; 2048,954; 2072,954; 2092,952; 2112,954"
  },

{ "type" : "pointille",
  "polyline" : " 1906,1000; 1926,998; 1948,998; 1968,998; 1988,996; 2010,996; 2030,996; 2050,996; 2070,996; 2092,994; 2112,994"
  },

{ "type" : "pointille",
  "polyline" : " 2030,1038; 2052,1036; 2072,1036; 2092,1036; 2112,1036"
  },

{ "type" : "pointille",
  "polyline" : " 2150,1040; 2172,1040; 2192,1040; 2212,1038"
  },

{ "type" : "pointille",
  "polyline" : " 2170,1000; 2192,1000; 2212,998"
  },

{ "type" : "pointille",
  "polyline" : " 2172,1080; 2192,1080; 2212,1080"
  },

{ "type" : "pointille",
  "polyline" : " 2252,956; 2274,956"
  },

{ "type" : "pointille",
  "polyline" : " 2252,998; 2272,996"
  },

{ "type" : "pointille",
  "polyline" : " 2254,1080; 2274,1078"
  },

{ "type" : "pointille",
  "polyline" : " 2254,1038; 2274,1038"
  },

{ "type" : "pointille",
  "polyline" : " 2334,1036; 2356,1034; 2376,1034"
  },

{ "type" : "pointille",
  "polyline" : " 2334,1076; 2356,1076; 2376,1076"
  },

{ "type" : "pointille",
  "polyline" : " 2334,994; 2356,994; 2376,994"
  },

{ "type" : "pointille",
  "polyline" : " 2416,1034; 2436,1032"
  },

{ "type" : "pointille",
  "polyline" : " 2416,1074; 2436,1074"
  },

{ "type" : "pointille",
  "polyline" : " 2416,992; 2436,992"
  },

{ "type" : "pointille",
  "polyline" : " 2476,948; 2498,950; 2518,948; 2538,948"
  },

{ "type" : "pointille",
  "polyline" : " 2498,990; 2518,990; 2540,990"
  },

{ "type" : "pointille",
  "polyline" : " 2498,1072; 2518,1072; 2540,1072"
  },

{ "type" : "pointille",
  "polyline" : " 2498,1032; 2518,1030; 2538,1030"
  },

{ "type" : "pointille",
  "polyline" : " 2580,988; 2600,988; 2620,988"
  },

{ "type" : "pointille",
  "polyline" : " 2580,1070; 2600,1070; 2620,1070"
  },

{ "type" : "pointille",
  "polyline" : " 2580,946; 2600,946; 2620,946"
  },

{ "type" : "pointille",
  "polyline" : " 2666,986; 2686,984; 2706,982; 2728,982"
  },

{ "type" : "pointille",
  "polyline" : " 2766,942; 2786,942; 2808,942; 2830,946"
  },

{ "type" : "pointille",
  "polyline" : " 2768,982; 2788,984; 2810,984; 2830,986"
  },

{ "type" : "pointille",
  "polyline" : " 2768,1022; 2790,1024; 2810,1024; 2830,1028"
  },

{ "type" : "pointille",
  "polyline" : " 2770,1064; 2790,1066; 2810,1066; 2830,1068"
  },

{ "type" : "pointille",
  "polyline" : " 1602,1130; 1624,1132; 1642,1130; 1664,1128; 1684,1128; 1704,1128; 1724,1128; 1746,1126; 1766,1126; 1786,1124; 1806,1126; 1826,1124; 1846,1124; 1868,1124"
  },

{ "type" : "pointille",
  "polyline" : " 1910,1122; 1930,1122; 1950,1122; 1970,1120; 1990,1120; 2012,1120; 2032,1120; 2052,1118; 2072,1118; 2092,1118; 2114,1118"
  },

{ "type" : "pointille",
  "polyline" : " 2062,1158; 2076,1158; 2092,1158; 2112,1158"
  },

{ "type" : "pointille",
  "polyline" : " 2096,1200; 2114,1200"
  },

{ "type" : "pointille",
  "polyline" : " 2174,1246; 2194,1244; 2214,1244"
  },

{ "type" : "pointille",
  "polyline" : " 2254,1202; 2274,1200"
  },

{ "type" : "pointille",
  "polyline" : " 2254,1160; 2274,1160"
  },

{ "type" : "pointille",
  "polyline" : " 2254,1244; 2276,1244"
  },

{ "type" : "pointille",
  "polyline" : " 2254,1120; 2274,1120"
  },

{ "type" : "pointille",
  "polyline" : " 2336,1242; 2358,1240; 2378,1240"
  },

{ "type" : "pointille",
  "polyline" : " 2416,1116; 2438,1114"
  },

{ "type" : "pointille",
  "polyline" : " 2418,1196; 2438,1196"
  },

{ "type" : "pointille",
  "polyline" : " 2418,1238; 2438,1238"
  },

{ "type" : "pointille",
  "polyline" : " 2418,1156; 2436,1154"
  },

{ "type" : "pointille",
  "polyline" : " 2498,1114; 2518,1112; 2540,1110"
  },

{ "type" : "pointille",
  "polyline" : " 2498,1154; 2520,1154; 2540,1154"
  },

{ "type" : "pointille",
  "polyline" : " 2500,1236; 2522,1236; 2542,1236"
  },

{ "type" : "pointille",
  "polyline" : " 2580,1112; 2602,1110; 2622,1110"
  },

{ "type" : "pointille",
  "polyline" : " 2582,1236; 2604,1234; 2624,1234"
  },

{ "type" : "pointille",
  "polyline" : " 2582,1192; 2602,1192; 2622,1192"
  },

{ "type" : "pointille",
  "polyline" : " 2582,1152; 2602,1150; 2622,1150"
  },

{ "type" : "pointille",
  "polyline" : " 2584,1276; 2604,1276; 2624,1276"
  },

{ "type" : "pointille",
  "polyline" : " 2770,1106; 2790,1106; 2810,1108; 2832,1110"
  },

{ "type" : "pointille",
  "polyline" : " 2770,1148; 2790,1146; 2812,1150; 2832,1150"
  },

{ "type" : "pointille",
  "polyline" : " 2770,1188; 2792,1188; 2812,1192; 2832,1192"
  },

{ "type" : "pointille",
  "polyline" : " 2772,1230; 2792,1230; 2814,1232; 2834,1234"
  },

{ "type" : "pointille",
  "polyline" : " 2774,1270; 2794,1270"
  },

{ "type" : "pointille",
  "polyline" : " 1302,1346; 1322,1344; 1342,1344; 1362,1344; 1382,1342; 1402,1342; 1422,1342; 1444,1342; 1464,1340; 1484,1340; 1504,1340; 1524,1340; 1544,1338; 1564,1338; 1586,1338; 1606,1336; 1626,1336; 1646,1336; 1666,1336; 1688,1336; 1708,1334; 1728,1334; 1748,1334; 1770,1332; 1790,1332; 1810,1332; 1830,1332; 1850,1332; 1870,1332; 1892,1330; 1912,1330; 1932,1330; 1952,1328; 1972,1328; 1994,1328; 2014,1326; 2034,1326; 2054,1326; 2074,1324; 2094,1326; 2116,1326"
  },

{ "type" : "pointille",
  "polyline" : " 1606,1458; 1626,1458; 1646,1458; 1668,1458; 1688,1456; 1708,1456; 1728,1456; 1748,1456; 1770,1456; 1790,1454; 1810,1454; 1832,1454; 1852,1454; 1872,1452; 1892,1454; 1914,1452; 1934,1452; 1954,1450; 1976,1452; 1996,1450; 2016,1450; 2036,1450; 2056,1448; 2078,1448; 2098,1448; 2118,1450"
  },

{ "type" : "pointille",
  "polyline" : " 1892,1412; 1912,1410; 1934,1412; 1952,1410; 1974,1410; 1994,1408; 2014,1408; 2036,1408; 2056,1406; 2076,1408; 2096,1408; 2118,1406"
  },

{ "type" : "pointille",
  "polyline" : " 2094,1282; 2116,1284"
  },

{ "type" : "pointille",
  "polyline" : " 2174,1368; 2196,1368; 2216,1368"
  },

{ "type" : "pointille",
  "polyline" : " 2174,1286; 2194,1284"
  },

{ "type" : "pointille",
  "polyline" : " 2256,1326; 2276,1326"
  },

{ "type" : "pointille",
  "polyline" : " 2256,1284; 2276,1284"
  },

{ "type" : "pointille",
  "polyline" : " 2256,1368; 2276,1366"
  },

{ "type" : "pointille",
  "polyline" : " 2258,1450; 2278,1450"
  },

{ "type" : "pointille",
  "polyline" : " 2258,1408; 2278,1408"
  },

{ "type" : "pointille",
  "polyline" : " 2336,1282; 2358,1280; 2378,1280"
  },

{ "type" : "pointille",
  "polyline" : " 2338,1364; 2360,1364; 2380,1364"
  },

{ "type" : "pointille",
  "polyline" : " 2418,1322; 2440,1318"
  },

{ "type" : "pointille",
  "polyline" : " 2418,1280; 2440,1278"
  },

{ "type" : "pointille",
  "polyline" : " 2420,1362; 2442,1362"
  },

{ "type" : "pointille",
  "polyline" : " 2422,1446; 2442,1444"
  },

{ "type" : "pointille",
  "polyline" : " 2422,1404; 2442,1404"
  },

{ "type" : "pointille",
  "polyline" : " 2484,1442; 2504,1444; 2526,1444; 2546,1442"
  },

{ "type" : "pointille",
  "polyline" : " 2500,1278; 2522,1278; 2542,1278"
  },

{ "type" : "pointille",
  "polyline" : " 2504,1402; 2524,1402; 2544,1400; 2564,1398; 2586,1402; 2606,1402; 2628,1400"
  },

{ "type" : "pointille",
  "polyline" : " 2504,1362; 2524,1362; 2544,1360"
  },

{ "type" : "pointille",
  "polyline" : " 2522,1318; 2544,1318"
  },

{ "type" : "pointille",
  "polyline" : " 2584,1360; 2606,1360; 2626,1358"
  },

{ "type" : "pointille",
  "polyline" : " 2584,1318; 2606,1318; 2626,1316"
  },

{ "type" : "pointille",
  "polyline" : " 2586,1444; 2606,1444; 2628,1442"
  },

{ "type" : "pointille",
  "polyline" : " 2670,1356; 2692,1354; 2712,1354; 2734,1352"
  },

{ "type" : "pointille",
  "polyline" : " 2712,1432; 2728,1432"
  },

{ "type" : "pointille",
  "polyline" : " 2774,1354; 2794,1354; 2816,1358; 2836,1358"
  },

{ "type" : "pointille",
  "polyline" : " 2776,1438; 2796,1438; 2818,1440; 2838,1440"
  },

{ "type" : "pointille",
  "polyline" : " 2776,1396; 2796,1396; 2816,1398; 2836,1398"
  },

{ "type" : "pointille",
  "polyline" : " 2814,1316; 2836,1316"
  },

{ "type" : "pointille",
  "polyline" : " 1362,1548; 1380,1546; 1402,1546; 1422,1544; 1442,1544; 1464,1544; 1484,1544; 1504,1544; 1526,1544; 1546,1542; 1566,1542; 1588,1542; 1608,1540; 1628,1540; 1648,1540; 1670,1540; 1690,1540; 1710,1538; 1730,1538; 1752,1538; 1772,1538; 1790,1536; 1814,1536; 1834,1536; 1854,1536; 1874,1534; 1894,1534; 1914,1534; 1934,1534; 1954,1534; 1976,1532; 1996,1534; 2016,1532; 2038,1532; 2058,1532; 2078,1532; 2100,1532; 2120,1532"
  },

{ "type" : "pointille",
  "polyline" : " 1692,1622; 1712,1620; 1732,1620; 1754,1620; 1774,1620; 1796,1620"
  },

{ "type" : "pointille",
  "polyline" : " 1710,1580; 1732,1580; 1752,1580; 1772,1578; 1792,1578; 1814,1578; 1834,1578; 1854,1578; 1874,1576; 1896,1576; 1916,1576; 1936,1574; 1956,1576; 1976,1574; 1998,1574; 2018,1572; 2040,1574; 2060,1574; 2080,1574; 2100,1574; 2122,1572"
  },

{ "type" : "pointille",
  "polyline" : " 1836,1618; 1856,1618; 1876,1618; 1896,1618; 1916,1616; 1938,1618; 1958,1616; 1978,1616; 1998,1614; 2020,1614; 2040,1614; 2060,1614; 2082,1614; 2102,1614; 2122,1614"
  },

{ "type" : "pointille",
  "polyline" : " 1914,1494; 1934,1494; 1954,1492; 1976,1492; 1996,1492; 2016,1490; 2036,1492; 2058,1490; 2078,1490; 2098,1490; 2118,1490"
  },

{ "type" : "pointille",
  "polyline" : " 2158,1534; 2178,1534; 2200,1534; 2220,1532"
  },

{ "type" : "pointille",
  "polyline" : " 2178,1492; 2198,1492; 2218,1492"
  },

{ "type" : "pointille",
  "polyline" : " 2260,1532; 2280,1532"
  },

{ "type" : "pointille",
  "polyline" : " 2260,1492; 2280,1490"
  },

{ "type" : "pointille",
  "polyline" : " 2262,1572; 2282,1574"
  },

{ "type" : "pointille",
  "polyline" : " 2262,1616; 2282,1616"
  },

{ "type" : "pointille",
  "polyline" : " 2342,1490; 2362,1488; 2382,1488"
  },

{ "type" : "pointille",
  "polyline" : " 2342,1530; 2362,1530; 2384,1528"
  },

{ "type" : "pointille",
  "polyline" : " 2422,1486; 2444,1486"
  },

{ "type" : "pointille",
  "polyline" : " 2424,1528; 2446,1526"
  },

{ "type" : "pointille",
  "polyline" : " 2426,1610; 2446,1610"
  },

{ "type" : "pointille",
  "polyline" : " 2506,1526; 2528,1526; 2548,1526"
  },

{ "type" : "pointille",
  "polyline" : " 2506,1486; 2526,1486; 2546,1484"
  },

{ "type" : "pointille",
  "polyline" : " 2508,1568; 2528,1568; 2548,1568"
  },

{ "type" : "pointille",
  "polyline" : " 2508,1610; 2528,1608; 2550,1610"
  },

{ "type" : "pointille",
  "polyline" : " 2588,1484; 2608,1484; 2628,1484"
  },

{ "type" : "pointille",
  "polyline" : " 2588,1526; 2610,1526; 2630,1526"
  },

{ "type" : "pointille",
  "polyline" : " 2588,1568; 2610,1566; 2630,1566"
  },

{ "type" : "pointille",
  "polyline" : " 2590,1610; 2610,1608; 2632,1608"
  },

{ "type" : "pointille",
  "polyline" : " 2776,1478; 2796,1478; 2818,1480; 2838,1480"
  },

{ "type" : "pointille",
  "polyline" : " 2778,1602; 2798,1602; 2818,1604; 2840,1604"
  },

{ "type" : "pointille",
  "polyline" : " 2778,1520; 2798,1520; 2818,1522; 2840,1522"
  },

{ "type" : "pointille",
  "polyline" : " 2820,1564; 2840,1564"
  },

{ "type" : "pointille",
  "polyline" : " 1372,1754; 1388,1750; 1406,1752; 1426,1750; 1446,1752; 1466,1750; 1488,1750; 1508,1750; 1526,1750; 1548,1748; 1568,1748; 1590,1748; 1610,1748; 1630,1748; 1650,1746; 1672,1746; 1690,1746; 1712,1746; 1732,1746; 1752,1744; 1774,1744; 1794,1744; 1814,1744; 1836,1744; 1856,1744; 1876,1742; 1896,1742; 1918,1742; 1938,1742; 1958,1740; 1978,1740; 2000,1740; 2020,1738; 2040,1738; 2062,1740; 2084,1740; 2102,1740; 2124,1738"
  },

{ "type" : "pointille",
  "polyline" : " 1388,1670; 1408,1668; 1430,1668; 1450,1668; 1470,1668; 1490,1668; 1510,1668; 1530,1666; 1552,1666; 1572,1666; 1592,1666; 1612,1664; 1634,1664; 1652,1664"
  },

{ "type" : "pointille",
  "polyline" : " 1694,1662; 1714,1662; 1736,1662; 1754,1662; 1776,1660; 1796,1660; 1816,1658; 1836,1660; 1858,1660; 1878,1660; 1898,1658; 1918,1658; 1940,1658; 1960,1658; 1980,1658; 2000,1656; 2020,1656"
  },

{ "type" : "pointille",
  "polyline" : " 1798,1702; 1816,1702; 1836,1702; 1856,1702; 1878,1702; 1898,1700; 1918,1700; 1938,1700; 1958,1700; 1980,1700; 2000,1698; 2022,1698; 2042,1698; 2062,1696; 2082,1696; 2102,1698; 2124,1696"
  },

{ "type" : "pointille",
  "polyline" : " 1860,1784; 1876,1784; 1898,1782; 1918,1784; 1938,1782; 1958,1782; 1980,1782; 2000,1780; 2020,1780; 2040,1780; 2062,1780; 2082,1780; 2102,1780; 2124,1780"
  },

{ "type" : "pointille",
  "polyline" : " 2062,1656; 2082,1654; 2102,1654; 2122,1654"
  },

{ "type" : "pointille",
  "polyline" : " 2262,1656; 2284,1656"
  },

{ "type" : "pointille",
  "polyline" : " 2262,1698; 2284,1698"
  },

{ "type" : "pointille",
  "polyline" : " 2264,1780; 2284,1780"
  },

{ "type" : "pointille",
  "polyline" : " 2264,1740; 2284,1740"
  },

{ "type" : "pointille",
  "polyline" : " 2326,1738; 2346,1738; 2366,1736; 2386,1736"
  },

{ "type" : "pointille",
  "polyline" : " 2426,1652; 2448,1652"
  },

{ "type" : "pointille",
  "polyline" : " 2428,1816; 2448,1816"
  },

{ "type" : "pointille",
  "polyline" : " 2428,1694; 2448,1694"
  },

{ "type" : "pointille",
  "polyline" : " 2428,1776; 2450,1776"
  },

{ "type" : "pointille",
  "polyline" : " 2428,1736; 2448,1734"
  },

{ "type" : "pointille",
  "polyline" : " 2488,1734; 2510,1732; 2530,1734; 2550,1734"
  },

{ "type" : "pointille",
  "polyline" : " 2488,1652; 2508,1652; 2530,1652; 2550,1650"
  },

{ "type" : "pointille",
  "polyline" : " 2510,1816; 2530,1816; 2552,1816"
  },

{ "type" : "pointille",
  "polyline" : " 2510,1774; 2530,1776; 2552,1776"
  },

{ "type" : "pointille",
  "polyline" : " 2510,1694; 2530,1694; 2550,1692"
  },

{ "type" : "pointille",
  "polyline" : " 2590,1650; 2612,1650; 2632,1650"
  },

{ "type" : "pointille",
  "polyline" : " 2592,1734; 2612,1734; 2634,1732"
  },

{ "type" : "pointille",
  "polyline" : " 2592,1692; 2612,1692; 2632,1692"
  },

{ "type" : "pointille",
  "polyline" : " 2592,1814; 2612,1814; 2632,1814"
  },

{ "type" : "pointille",
  "polyline" : " 2592,1774; 2612,1774; 2634,1774"
  },

{ "type" : "pointille",
  "polyline" : " 2778,1644; 2800,1644; 2820,1646; 2840,1646"
  },

{ "type" : "pointille",
  "polyline" : " 2780,1768; 2800,1768; 2820,1770; 2842,1770"
  },

{ "type" : "pointille",
  "polyline" : " 2780,1808; 2800,1808; 2820,1810; 2842,1810"
  },

{ "type" : "pointille",
  "polyline" : " 2780,1726; 2800,1726; 2820,1728; 2842,1730"
  },

{ "type" : "pointille",
  "polyline" : " 2780,1686; 2800,1686; 2820,1686; 2840,1688"
  },

{ "type" : "pointille",
  "polyline" : " 4302,1682; 4324,1684"
  },

{ "type" : "pointille",
  "polyline" : " 1260,1878; 1280,1878"
  },

{ "type" : "pointille",
  "polyline" : " 1320,1876; 1342,1876; 1362,1876; 1382,1874; 1404,1876"
  },

{ "type" : "pointille",
  "polyline" : " 1444,1874; 1464,1874; 1484,1872; 1506,1872; 1526,1872; 1546,1872; 1566,1872; 1588,1870; 1608,1870; 1628,1870; 1648,1870"
  },

{ "type" : "pointille",
  "polyline" : " 1462,1832; 1484,1832; 1504,1832; 1524,1830; 1546,1830; 1566,1830; 1586,1830; 1606,1830; 1626,1830; 1648,1828; 1668,1826; 1688,1828; 1708,1828; 1728,1828; 1750,1826; 1770,1826; 1792,1826; 1812,1826; 1832,1826; 1856,1824; 1876,1824; 1896,1824; 1918,1824; 1938,1822; 1958,1822; 1980,1822; 2000,1822; 2020,1822; 2040,1822; 2062,1820; 2082,1820; 2102,1822; 2122,1820"
  },

{ "type" : "pointille",
  "polyline" : " 1530,1912; 1546,1912; 1568,1912; 1588,1912; 1608,1912; 1628,1910"
  },

{ "type" : "pointille",
  "polyline" : " 1668,1910; 1690,1908; 1710,1910; 1730,1908; 1752,1908; 1772,1908; 1792,1908; 1814,1908; 1834,1908; 1854,1906; 1874,1906; 1894,1906; 1916,1906; 1936,1904; 1958,1904; 1978,1904; 1998,1904; 2018,1904; 2040,1902; 2060,1902; 2080,1904; 2102,1902; 2122,1902"
  },

{ "type" : "pointille",
  "polyline" : " 1692,1870; 1712,1868; 1730,1868; 1752,1868; 1772,1866; 1792,1868"
  },

{ "type" : "pointille",
  "polyline" : " 1834,1866; 1854,1866; 1876,1866; 1896,1864; 1918,1866; 1938,1864"
  },

{ "type" : "pointille",
  "polyline" : " 1978,1864; 2000,1862"
  },

{ "type" : "pointille",
  "polyline" : " 2040,1862; 2060,1862; 2082,1862; 2102,1862; 2122,1862"
  },

{ "type" : "pointille",
  "polyline" : " 2180,1946; 2200,1946; 2222,1946"
  },

{ "type" : "pointille",
  "polyline" : " 2180,1986; 2202,1986; 2222,1986"
  },

{ "type" : "pointille",
  "polyline" : " 2182,1864; 2202,1864; 2224,1862"
  },

{ "type" : "pointille",
  "polyline" : " 2202,1822; 2222,1822"
  },

{ "type" : "pointille",
  "polyline" : " 2262,1986; 2282,1986"
  },

{ "type" : "pointille",
  "polyline" : " 2262,1944; 2284,1944"
  },

{ "type" : "pointille",
  "polyline" : " 2262,1902; 2284,1904"
  },

{ "type" : "pointille",
  "polyline" : " 2264,1822; 2284,1822"
  },

{ "type" : "pointille",
  "polyline" : " 2264,1862; 2284,1862"
  },

{ "type" : "pointille",
  "polyline" : " 2344,1944; 2366,1942; 2386,1942"
  },

{ "type" : "pointille",
  "polyline" : " 2344,1984; 2366,1984; 2386,1982"
  },

{ "type" : "pointille",
  "polyline" : " 2346,1860; 2366,1860; 2386,1858"
  },

{ "type" : "pointille",
  "polyline" : " 2366,1820; 2386,1816"
  },

{ "type" : "pointille",
  "polyline" : " 2426,1982; 2448,1982"
  },

{ "type" : "pointille",
  "polyline" : " 2428,1942; 2448,1940"
  },

{ "type" : "pointille",
  "polyline" : " 2428,1858; 2448,1858"
  },

{ "type" : "pointille",
  "polyline" : " 2510,1898; 2530,1898; 2550,1896"
  },

{ "type" : "pointille",
  "polyline" : " 2510,1940; 2530,1940; 2550,1938"
  },

{ "type" : "pointille",
  "polyline" : " 2510,1980; 2530,1980; 2550,1980"
  },

{ "type" : "pointille",
  "polyline" : " 2510,1858; 2530,1858; 2550,1858"
  },

{ "type" : "pointille",
  "polyline" : " 2592,1856; 2612,1856; 2632,1856"
  },

{ "type" : "pointille",
  "polyline" : " 2592,1980; 2612,1978; 2632,1978"
  },

{ "type" : "pointille",
  "polyline" : " 2592,1938; 2612,1938; 2632,1938"
  },

{ "type" : "pointille",
  "polyline" : " 2592,1896; 2612,1896; 2632,1896"
  },

{ "type" : "pointille",
  "polyline" : " 2780,1932; 2800,1932; 2822,1934; 2842,1932"
  },

{ "type" : "pointille",
  "polyline" : " 2780,1890; 2800,1890; 2822,1892; 2842,1892"
  },

{ "type" : "pointille",
  "polyline" : " 2780,1850; 2800,1850; 2820,1850; 2842,1852"
  },

{ "type" : "pointille",
  "polyline" : " 2780,1972; 2800,1974"
  },

{ "type" : "pointille",
  "polyline" : " 1582,2158; 1602,2156; 1622,2156; 1642,2156; 1664,2156; 1684,2156; 1706,2156; 1726,2154; 1748,2154; 1768,2154; 1790,2154; 1810,2154; 1830,2154; 1852,2152; 1872,2154; 1894,2152; 1914,2152; 1936,2152; 1956,2152; 1978,2152; 1998,2152; 2018,2150; 2040,2150; 2060,2150; 2080,2150; 2100,2150; 2122,2148"
  },

{ "type" : "pointille",
  "polyline" : " 1584,2076; 1602,2074; 1624,2074; 1644,2074; 1664,2072; 1686,2072; 1706,2072; 1726,2072; 1746,2072; 1768,2072; 1788,2072; 1808,2072; 1828,2070; 1850,2070; 1870,2070; 1890,2070; 1912,2070; 1936,2068; 1956,2070; 1976,2068; 1998,2068; 2018,2068; 2038,2068; 2060,2068; 2080,2068; 2102,2066; 2122,2068"
  },

{ "type" : "pointille",
  "polyline" : " 1586,2116; 1606,2116"
  },

{ "type" : "pointille",
  "polyline" : " 1646,2114; 1666,2114; 1686,2114; 1708,2114; 1728,2114; 1748,2114; 1770,2114; 1790,2114; 1812,2114; 1832,2112; 1852,2110; 1874,2112; 1894,2112; 1916,2110; 1936,2110; 1956,2110; 1978,2110; 1998,2110; 2020,2108; 2040,2110; 2060,2108; 2080,2108; 2102,2108; 2122,2108"
  },

{ "type" : "pointille",
  "polyline" : " 1646,2032; 1668,2032; 1688,2032; 1708,2032"
  },

{ "type" : "pointille",
  "polyline" : " 1750,2030; 1770,2032; 1790,2030; 1812,2030; 1832,2028; 1852,2028; 1874,2030; 1894,2030"
  },

{ "type" : "pointille",
  "polyline" : " 1934,2028; 1956,2028; 1976,2028; 1996,2028; 2018,2028; 2038,2026; 2058,2026; 2080,2028; 2100,2026; 2120,2026"
  },

{ "type" : "pointille",
  "polyline" : " 2160,2110; 2182,2110; 2202,2108; 2222,2108"
  },

{ "type" : "pointille",
  "polyline" : " 2180,2068; 2200,2066; 2222,2066"
  },

{ "type" : "pointille",
  "polyline" : " 2182,2026; 2202,2028; 2222,2028"
  },

{ "type" : "pointille",
  "polyline" : " 2262,2026; 2282,2026"
  },

{ "type" : "pointille",
  "polyline" : " 2262,2066; 2282,2066"
  },

{ "type" : "pointille",
  "polyline" : " 2264,2108; 2284,2106"
  },

{ "type" : "pointille",
  "polyline" : " 2288,2146; 2304,2148"
  },

{ "type" : "pointille",
  "polyline" : " 2326,2108; 2346,2108; 2366,2106; 2386,2106"
  },

{ "type" : "pointille",
  "polyline" : " 2344,2026; 2366,2024; 2386,2024"
  },

{ "type" : "pointille",
  "polyline" : " 2344,2066; 2364,2064; 2386,2064"
  },

{ "type" : "pointille",
  "polyline" : " 2426,2064; 2446,2062"
  },

{ "type" : "pointille",
  "polyline" : " 2426,2024; 2448,2024"
  },

{ "type" : "pointille",
  "polyline" : " 2428,2104; 2448,2104"
  },

{ "type" : "pointille",
  "polyline" : " 2508,2022; 2530,2022; 2550,2022"
  },

{ "type" : "pointille",
  "polyline" : " 2508,2062; 2530,2062; 2550,2060"
  },

{ "type" : "pointille",
  "polyline" : " 2510,2102; 2530,2102; 2550,2102"
  },

{ "type" : "pointille",
  "polyline" : " 2592,2020; 2612,2018; 2632,2018"
  },

{ "type" : "pointille",
  "polyline" : " 2592,2102; 2612,2100; 2634,2100"
  },

{ "type" : "pointille",
  "polyline" : " 2592,2060; 2612,2060; 2632,2060"
  },

{ "type" : "pointille",
  "polyline" : " 2614,2142; 2634,2142"
  },

{ "type" : "pointille",
  "polyline" : " 2780,2014; 2800,2014; 2822,2016; 2842,2016"
  },

{ "type" : "pointille",
  "polyline" : " 2780,2056; 2802,2056; 2822,2056; 2842,2056"
  },

{ "type" : "pointille",
  "polyline" : " 2782,2098; 2802,2096; 2822,2098; 2844,2098"
  },

{ "type" : "pointille",
  "polyline" : " 2802,2138; 2822,2138; 2844,2138"
  },

{ "type" : "pointille",
  "polyline" : " 1512,2322; 1532,2322; 1552,2322; 1574,2324; 1594,2322; 1614,2322"
  },

{ "type" : "pointille",
  "polyline" : " 1656,2322; 1676,2320; 1698,2322; 1718,2320; 1738,2320; 1758,2320; 1778,2320; 1800,2320; 1820,2318; 1840,2320; 1860,2318; 1882,2318; 1902,2318; 1922,2318; 1942,2318; 1962,2318; 1984,2318; 2004,2318; 2024,2318; 2044,2316; 2066,2316; 2086,2316; 2106,2314; 2128,2316"
  },

{ "type" : "pointille",
  "polyline" : " 1668,2198; 1686,2198; 1708,2196; 1728,2196; 1748,2196; 1770,2196; 1790,2196; 1810,2196; 1832,2196; 1852,2194; 1872,2194; 1894,2194; 1914,2194; 1934,2194; 1956,2194; 1976,2192; 1998,2192; 2020,2192; 2040,2190; 2062,2192; 2082,2192; 2102,2190; 2124,2190"
  },

{ "type" : "pointille",
  "polyline" : " 1896,2278; 1918,2276; 1938,2276; 1958,2276; 1980,2276; 2000,2276; 2020,2276; 2040,2276; 2062,2276; 2082,2274; 2102,2274; 2122,2272"
  },

{ "type" : "pointille",
  "polyline" : " 2064,2232; 2084,2232; 2104,2232; 2124,2232"
  },

{ "type" : "pointille",
  "polyline" : " 1680,2362; 1700,2362; 1720,2362; 1742,2362; 1762,2362; 1782,2362; 1802,2362; 1822,2362; 1844,2360; 1862,2360; 1884,2360; 1904,2360; 1924,2360; 1946,2360; 1966,2360; 1986,2358; 2006,2358; 2026,2358; 2048,2358; 2068,2358; 2088,2358; 2108,2356; 2128,2356"
  },

{ "type" : "pointille",
  "polyline" : " 2162,2192; 2182,2192; 2202,2192; 2224,2192"
  },

{ "type" : "pointille",
  "polyline" : " 2162,2234; 2184,2234; 2204,2234; 2224,2230"
  },

{ "type" : "pointille",
  "polyline" : " 2184,2274; 2206,2274; 2226,2272"
  },

{ "type" : "pointille",
  "polyline" : " 2186,2358; 2206,2356; 2228,2356"
  },

{ "type" : "pointille",
  "polyline" : " 2266,2314; 2288,2314"
  },

{ "type" : "pointille",
  "polyline" : " 2266,2272; 2286,2272"
  },

{ "type" : "pointille",
  "polyline" : " 2266,2230; 2286,2230"
  },

{ "type" : "pointille",
  "polyline" : " 2268,2356; 2288,2356"
  },

{ "type" : "pointille",
  "polyline" : " 2326,2190; 2348,2190; 2368,2190; 2388,2188"
  },

{ "type" : "pointille",
  "polyline" : " 2328,2272; 2348,2270; 2370,2270; 2390,2270"
  },

{ "type" : "pointille",
  "polyline" : " 2348,2230; 2368,2230; 2388,2228"
  },

{ "type" : "pointille",
  "polyline" : " 2350,2354; 2370,2354; 2392,2354"
  },

{ "type" : "pointille",
  "polyline" : " 2428,2186; 2448,2186"
  },

{ "type" : "pointille",
  "polyline" : " 2430,2228; 2450,2228"
  },

{ "type" : "pointille",
  "polyline" : " 2430,2270; 2450,2268"
  },

{ "type" : "pointille",
  "polyline" : " 2432,2312; 2452,2310"
  },

{ "type" : "pointille",
  "polyline" : " 2432,2352; 2452,2352"
  },

{ "type" : "pointille",
  "polyline" : " 2510,2186; 2532,2186; 2552,2186"
  },

{ "type" : "pointille",
  "polyline" : " 2512,2226; 2532,2226; 2552,2226"
  },

{ "type" : "pointille",
  "polyline" : " 2512,2268; 2534,2268; 2554,2268"
  },

{ "type" : "pointille",
  "polyline" : " 2514,2310; 2534,2310; 2554,2310"
  },

{ "type" : "pointille",
  "polyline" : " 2514,2350; 2534,2352; 2554,2350"
  },

{ "type" : "pointille",
  "polyline" : " 2594,2184; 2614,2184; 2634,2184"
  },

{ "type" : "pointille",
  "polyline" : " 2594,2268; 2616,2266; 2636,2266"
  },

{ "type" : "pointille",
  "polyline" : " 2594,2226; 2614,2224; 2636,2224"
  },

{ "type" : "pointille",
  "polyline" : " 2596,2308; 2616,2308; 2636,2308"
  },

{ "type" : "pointille",
  "polyline" : " 2596,2350; 2616,2348; 2638,2348"
  },

{ "type" : "pointille",
  "polyline" : " 2782,2220; 2804,2222; 2824,2222; 2844,2222"
  },

{ "type" : "pointille",
  "polyline" : " 2784,2262; 2804,2262; 2824,2262; 2846,2262"
  },

{ "type" : "pointille",
  "polyline" : " 2784,2344; 2806,2344; 2826,2344; 2846,2344"
  },

{ "type" : "pointille",
  "polyline" : " 2784,2304; 2804,2304; 2826,2304; 2846,2302"
  },

{ "type" : "pointille",
  "polyline" : " 2802,2180; 2824,2180; 2844,2180"
  },

{ "type" : "pointille",
  "polyline" : " 1602,2404; 1618,2404; 1638,2404; 1660,2404; 1680,2404; 1700,2404; 1720,2402; 1740,2402"
  },

{ "type" : "pointille",
  "polyline" : " 1636,2444; 1656,2446; 1676,2444; 1696,2444; 1716,2444; 1738,2444; 1760,2444; 1780,2444; 1802,2444; 1822,2442; 1842,2442; 1862,2442; 1882,2442; 1904,2442; 1924,2442; 1944,2442; 1964,2440; 1986,2440; 2006,2440; 2026,2440; 2046,2440; 2066,2440; 2088,2438; 2108,2438; 2128,2438"
  },

{ "type" : "pointille",
  "polyline" : " 1782,2402; 1802,2404; 1822,2402; 1844,2402; 1864,2402; 1884,2402; 1904,2402; 1924,2400; 1944,2400; 1966,2400; 1986,2400; 2006,2400; 2026,2400; 2046,2400; 2068,2398; 2088,2398; 2108,2398; 2130,2398"
  },

{ "type" : "pointille",
  "polyline" : " 1926,2522; 1942,2524; 1964,2524; 1984,2524; 2004,2522; 2026,2524; 2046,2522; 2066,2522; 2086,2522; 2106,2520; 2128,2520"
  },

{ "type" : "pointille",
  "polyline" : " 2066,2482; 2088,2482; 2108,2480; 2128,2480"
  },

{ "type" : "pointille",
  "polyline" : " 2186,2398; 2208,2398; 2228,2398"
  },

{ "type" : "pointille",
  "polyline" : " 2188,2438; 2208,2438; 2228,2438"
  },

{ "type" : "pointille",
  "polyline" : " 2268,2480; 2290,2480"
  },

{ "type" : "pointille",
  "polyline" : " 2268,2438; 2290,2438"
  },

{ "type" : "pointille",
  "polyline" : " 2268,2398; 2290,2396"
  },

{ "type" : "pointille",
  "polyline" : " 2270,2522; 2290,2520"
  },

{ "type" : "pointille",
  "polyline" : " 2350,2436; 2372,2436; 2392,2434"
  },

{ "type" : "pointille",
  "polyline" : " 2350,2396; 2370,2396; 2392,2394"
  },

{ "type" : "pointille",
  "polyline" : " 2432,2434; 2454,2434"
  },

{ "type" : "pointille",
  "polyline" : " 2432,2392; 2454,2394"
  },

{ "type" : "pointille",
  "polyline" : " 2434,2476; 2454,2476"
  },

{ "type" : "pointille",
  "polyline" : " 2434,2518; 2454,2518"
  },

{ "type" : "pointille",
  "polyline" : " 2514,2392; 2536,2392; 2556,2392"
  },

{ "type" : "pointille",
  "polyline" : " 2516,2516; 2536,2516; 2556,2514"
  },

{ "type" : "pointille",
  "polyline" : " 2516,2434; 2536,2434; 2556,2432"
  },

{ "type" : "pointille",
  "polyline" : " 2596,2390; 2618,2390; 2638,2390"
  },

{ "type" : "pointille",
  "polyline" : " 2598,2432; 2618,2432; 2638,2430"
  },

{ "type" : "pointille",
  "polyline" : " 2598,2516; 2618,2516; 2640,2514"
  },

{ "type" : "pointille",
  "polyline" : " 2598,2472; 2618,2472; 2638,2472"
  },

{ "type" : "pointille",
  "polyline" : " 2786,2386; 2806,2386; 2826,2386; 2848,2386"
  },

{ "type" : "pointille",
  "polyline" : " 2786,2510; 2808,2510; 2828,2510; 2848,2510"
  },

{ "type" : "pointille",
  "polyline" : " 2786,2428; 2806,2428; 2828,2428; 2848,2426"
  },

{ "type" : "pointille",
  "polyline" : " 2786,2468; 2806,2468; 2828,2468; 2848,2468"
  },

{ "type" : "pointille",
  "polyline" : " 1534,2776; 1554,2776; 1574,2774; 1596,2776; 1616,2774; 1636,2774; 1656,2774; 1678,2774; 1698,2774; 1720,2774; 1738,2774; 1760,2772; 1780,2774; 1800,2772; 1820,2772; 1840,2772; 1862,2772; 1882,2772; 1902,2772; 1922,2770; 1944,2770; 1964,2770; 1984,2770; 2006,2770; 2026,2770; 2048,2770; 2068,2770; 2088,2768; 2110,2770; 2130,2770"
  },

{ "type" : "pointille",
  "polyline" : " 1676,2814; 1698,2814; 1718,2814; 1738,2814; 1760,2814; 1780,2814; 1802,2814; 1822,2812; 1842,2812; 1862,2812; 1882,2812; 1904,2812; 1924,2812; 1944,2812; 1964,2812; 1986,2812; 2006,2812; 2026,2812; 2048,2812; 2068,2812; 2088,2812; 2108,2812; 2130,2810"
  },

{ "type" : "pointille",
  "polyline" : " 1552,2898; 1574,2900; 1594,2898; 1614,2900; 1636,2898; 1656,2898; 1676,2898; 1696,2896; 1716,2898; 1736,2896; 1758,2896; 1778,2896; 1798,2896; 1818,2896; 1840,2894; 1860,2896; 1882,2896; 1902,2896; 1922,2896; 1944,2894; 1964,2894; 1984,2896; 2006,2896; 2026,2894; 2048,2894; 2068,2894; 2088,2894; 2110,2894; 2130,2894"
  },

{ "type" : "pointille",
  "polyline" : " 1792,2854; 1808,2856; 1824,2852; 1842,2854; 1864,2856; 1884,2854; 1904,2854; 1924,2854; 1946,2854; 1966,2854; 1986,2854; 2006,2852; 2028,2854; 2048,2854; 2070,2854; 2090,2854; 2110,2852; 2130,2852"
  },

{ "type" : "pointille",
  "polyline" : " 2168,2772; 2188,2770; 2210,2768; 2230,2768"
  },

{ "type" : "pointille",
  "polyline" : " 2188,2894; 2210,2894; 2230,2892"
  },

{ "type" : "pointille",
  "polyline" : " 2188,2810; 2210,2810; 2230,2810"
  },

{ "type" : "pointille",
  "polyline" : " 2270,2768; 2292,2768"
  },

{ "type" : "pointille",
  "polyline" : " 2270,2892; 2292,2892"
  },

{ "type" : "pointille",
  "polyline" : " 2270,2852; 2292,2850"
  },

{ "type" : "pointille",
  "polyline" : " 2270,2810; 2292,2810"
  },

{ "type" : "pointille",
  "polyline" : " 2352,2892; 2374,2892; 2396,2890"
  },

{ "type" : "pointille",
  "polyline" : " 2354,2768; 2374,2768; 2394,2766"
  },

{ "type" : "pointille",
  "polyline" : " 2354,2808; 2374,2808; 2394,2808"
  },

{ "type" : "pointille",
  "polyline" : " 2436,2766; 2456,2766"
  },

{ "type" : "pointille",
  "polyline" : " 2436,2850; 2456,2850"
  },

{ "type" : "pointille",
  "polyline" : " 2436,2808; 2456,2806"
  },

{ "type" : "pointille",
  "polyline" : " 2518,2888; 2538,2890; 2560,2888"
  },

{ "type" : "pointille",
  "polyline" : " 2518,2848; 2538,2846; 2558,2846"
  },

{ "type" : "pointille",
  "polyline" : " 2518,2806; 2538,2806; 2558,2806"
  },

{ "type" : "pointille",
  "polyline" : " 2518,2764; 2538,2764; 2558,2764"
  },

{ "type" : "pointille",
  "polyline" : " 2598,2846; 2620,2846; 2640,2846"
  },

{ "type" : "pointille",
  "polyline" : " 2600,2806; 2620,2804; 2640,2804"
  },

{ "type" : "pointille",
  "polyline" : " 2600,2764; 2620,2762; 2640,2762"
  },

{ "type" : "pointille",
  "polyline" : " 2600,2888; 2620,2888; 2642,2888"
  },

{ "type" : "pointille",
  "polyline" : " 2788,2840; 2808,2840; 2830,2842; 2850,2842"
  },

{ "type" : "pointille",
  "polyline" : " 2788,2800; 2808,2800; 2830,2800; 2850,2800"
  },

{ "type" : "pointille",
  "polyline" : " 2788,2758; 2808,2758; 2828,2758; 2850,2758"
  },

{ "type" : "pointille",
  "polyline" : " 2808,2882; 2828,2884; 2850,2884"
  },

{ "type" : "pointille",
  "polyline" : " 654,2924; 670,2920"
  },

{ "type" : "pointille",
  "polyline" : " 1572,2940; 1594,2940; 1614,2940; 1634,2940; 1654,2940; 1676,2938"
  },

{ "type" : "pointille",
  "polyline" : " 1718,2938; 1738,2938; 1758,2938; 1780,2938; 1800,2938; 1822,2938; 1840,2936; 1862,2936; 1882,2936; 1904,2936; 1924,2938; 1944,2936; 1964,2936; 1986,2936; 2006,2936; 2026,2936; 2048,2936; 2068,2936; 2088,2936; 2110,2936; 2130,2936"
  },

{ "type" : "pointille",
  "polyline" : " 1802,3020; 1822,3020; 1844,3020; 1864,3020; 1884,3020; 1904,3020; 1926,3020; 1946,3018; 1966,3018; 1988,3020; 2008,3018; 2028,3020; 2048,3020; 2070,3018; 2090,3018; 2112,3018; 2132,3018"
  },

{ "type" : "pointille",
  "polyline" : " 1822,2978; 1842,2978; 1862,2978; 1884,2978; 1904,2978; 1926,2978; 1946,2978; 1966,2976; 1988,2978; 2008,2978; 2028,2978; 2048,2976; 2070,2978; 2090,2978; 2112,2976; 2130,2976"
  },

{ "type" : "pointille",
  "polyline" : " 2168,2936; 2190,2934; 2210,2934; 2230,2934"
  },

{ "type" : "pointille",
  "polyline" : " 2190,2976; 2210,2976; 2232,2976"
  },

{ "type" : "pointille",
  "polyline" : " 2192,3058; 2212,3058; 2232,3058"
  },

{ "type" : "pointille",
  "polyline" : " 2272,3016; 2292,3016"
  },

{ "type" : "pointille",
  "polyline" : " 2272,2932; 2292,2932"
  },

{ "type" : "pointille",
  "polyline" : " 2274,3056; 2294,3056"
  },

{ "type" : "pointille",
  "polyline" : " 2354,2972; 2376,2974; 2396,2974"
  },

{ "type" : "pointille",
  "polyline" : " 2354,2932; 2374,2932; 2394,2930"
  },

{ "type" : "pointille",
  "polyline" : " 2356,3056; 2376,3056; 2396,3056"
  },

{ "type" : "pointille",
  "polyline" : " 2436,3014; 2458,3014"
  },

{ "type" : "pointille",
  "polyline" : " 2436,2972; 2456,2972"
  },

{ "type" : "pointille",
  "polyline" : " 2436,2930; 2456,2930"
  },

{ "type" : "pointille",
  "polyline" : " 2438,3054; 2458,3054"
  },

{ "type" : "pointille",
  "polyline" : " 2498,3012; 2518,3012; 2538,3012; 2560,3012"
  },

{ "type" : "pointille",
  "polyline" : " 2518,2930; 2538,2930; 2558,2930"
  },

{ "type" : "pointille",
  "polyline" : " 2518,2970; 2540,2970; 2560,2970"
  },

{ "type" : "pointille",
  "polyline" : " 2520,3054; 2540,3054; 2562,3054"
  },

{ "type" : "pointille",
  "polyline" : " 2600,2970; 2620,2970; 2642,2970"
  },

{ "type" : "pointille",
  "polyline" : " 2600,3012; 2622,3012; 2642,3012"
  },

{ "type" : "pointille",
  "polyline" : " 2600,2928; 2620,2928; 2640,2928"
  },

{ "type" : "pointille",
  "polyline" : " 2602,3052; 2622,3052; 2642,3052"
  },

{ "type" : "pointille",
  "polyline" : " 2788,2924; 2808,2924; 2830,2924; 2850,2926"
  },

{ "type" : "pointille",
  "polyline" : " 2788,2964; 2810,2964; 2830,2964; 2850,2966"
  },

{ "type" : "pointille",
  "polyline" : " 2790,3006; 2810,3006; 2832,3008; 2852,3008"
  },

{ "type" : "pointille",
  "polyline" : " 2830,3048; 2852,3048"
  },

{ "type" : "pointille",
  "polyline" : " 656,3250; 670,3248"
  },

{ "type" : "pointille",
  "polyline" : " 1682,3104; 1702,3104; 1722,3104; 1744,3104; 1764,3104; 1786,3104; 1806,3104; 1826,3104; 1846,3102; 1866,3102; 1888,3102; 1908,3102; 1928,3102; 1948,3102; 1968,3102; 1990,3102; 2010,3102; 2030,3102; 2050,3102; 2072,3102; 2092,3102; 2112,3102; 2134,3100"
  },

{ "type" : "pointille",
  "polyline" : " 1688,3184; 1706,3186; 1726,3186; 1746,3184; 1766,3184; 1786,3184; 1808,3184; 1828,3184; 1848,3182; 1868,3184; 1890,3184; 1910,3182; 1930,3184; 1950,3184; 1972,3184; 1992,3184; 2012,3184; 2032,3182; 2054,3184; 2074,3184; 2094,3184"
  },

{ "type" : "pointille",
  "polyline" : " 1688,3144; 1706,3144; 1722,3144; 1742,3144; 1764,3144; 1784,3144; 1806,3144; 1826,3144; 1846,3144; 1866,3144; 1888,3144; 1908,3144; 1928,3144; 1948,3144; 1970,3144; 1990,3144; 2010,3144; 2030,3142; 2052,3144; 2072,3142; 2092,3142; 2114,3142; 2134,3142"
  },

{ "type" : "pointille",
  "polyline" : " 1908,3226; 1928,3224; 1948,3226; 1970,3226; 1990,3226; 2010,3226; 2030,3226; 2050,3226; 2072,3226; 2092,3224; 2114,3226; 2134,3226"
  },

{ "type" : "pointille",
  "polyline" : " 2194,3222; 2214,3222; 2236,3222"
  },

{ "type" : "pointille",
  "polyline" : " 2274,3098; 2296,3098"
  },

{ "type" : "pointille",
  "polyline" : " 2276,3140; 2298,3140"
  },

{ "type" : "pointille",
  "polyline" : " 2276,3222; 2296,3222"
  },

{ "type" : "pointille",
  "polyline" : " 2276,3182; 2296,3182"
  },

{ "type" : "pointille",
  "polyline" : " 2358,3222; 2378,3222; 2400,3220"
  },

{ "type" : "pointille",
  "polyline" : " 2440,3178; 2460,3178"
  },

{ "type" : "pointille",
  "polyline" : " 2440,3138; 2460,3138"
  },

{ "type" : "pointille",
  "polyline" : " 2440,3220; 2462,3220"
  },

{ "type" : "pointille",
  "polyline" : " 2520,3096; 2542,3096; 2562,3094"
  },

{ "type" : "pointille",
  "polyline" : " 2522,3178; 2542,3178; 2562,3178"
  },

{ "type" : "pointille",
  "polyline" : " 2522,3136; 2542,3136"
  },

{ "type" : "pointille",
  "polyline" : " 2522,3218; 2544,3220; 2564,3218"
  },

{ "type" : "pointille",
  "polyline" : " 2602,3094; 2624,3094; 2644,3094"
  },

{ "type" : "pointille",
  "polyline" : " 2604,3176; 2624,3178; 2646,3176"
  },

{ "type" : "pointille",
  "polyline" : " 2604,3134; 2624,3136; 2644,3134"
  },

{ "type" : "pointille",
  "polyline" : " 2604,3218; 2626,3218; 2646,3218"
  },

{ "type" : "pointille",
  "polyline" : " 2792,3088; 2812,3088"
  },

{ "type" : "pointille",
  "polyline" : " 2792,3172; 2812,3172"
  },

{ "type" : "pointille",
  "polyline" : " 2792,3212; 2814,3212; 2834,3214; 2856,3214"
  },

{ "type" : "pointille",
  "polyline" : " 2792,3130; 2812,3130; 2832,3130; 2854,3130"
  },

{ "type" : "pointille",
  "polyline" : " 2794,3254; 2814,3254; 2836,3256; 2856,3256"
  },

{ "type" : "pointille",
  "polyline" : " 1418,3314; 1438,3312; 1454,3312; 1470,3312; 1492,3312"
  },

{ "type" : "pointille",
  "polyline" : " 1532,3312; 1552,3312; 1574,3312; 1594,3310; 1616,3310; 1636,3310; 1656,3310; 1676,3310; 1698,3310; 1716,3308; 1738,3310; 1760,3310; 1780,3308; 1800,3310; 1820,3308; 1842,3308; 1862,3308; 1882,3308"
  },

{ "type" : "pointille",
  "polyline" : " 1540,3352; 1560,3352; 1582,3352; 1602,3352; 1622,3352; 1644,3352; 1664,3352; 1684,3350; 1704,3350; 1724,3350; 1746,3350; 1766,3350; 1788,3350; 1808,3350; 1828,3350; 1848,3350; 1870,3348; 1890,3348; 1910,3350; 1932,3348; 1952,3350; 1972,3348; 1994,3348; 2014,3348; 2034,3348; 2054,3350; 2076,3348; 2096,3348; 2116,3348; 2138,3350"
  },

{ "type" : "pointille",
  "polyline" : " 1594,3272; 1614,3270; 1634,3270; 1658,3270; 1678,3270"
  },

{ "type" : "pointille",
  "polyline" : " 1684,3434; 1704,3432; 1726,3434; 1748,3434; 1766,3432; 1786,3432; 1808,3432; 1828,3432; 1850,3432; 1870,3432; 1892,3430; 1912,3432; 1934,3432; 1954,3432; 1974,3430; 1996,3432; 2016,3430; 2036,3430; 2058,3430; 2080,3430; 2100,3430; 2120,3430; 2140,3430"
  },

{ "type" : "pointille",
  "polyline" : " 1720,3268; 1740,3268; 1760,3268; 1780,3268; 1802,3268; 1822,3268; 1842,3268; 1864,3268; 1884,3268; 1906,3266; 1926,3268; 1948,3266; 1970,3266; 1988,3266; 2010,3266; 2030,3266; 2052,3266; 2072,3266; 2094,3266; 2114,3266; 2136,3266"
  },

{ "type" : "pointille",
  "polyline" : " 1766,3390; 1786,3390; 1808,3390; 1828,3390; 1848,3390; 1870,3390; 1890,3392; 1910,3390; 1932,3390; 1952,3390; 1974,3390; 1994,3390; 2014,3390; 2036,3390; 2056,3390; 2078,3390; 2098,3390; 2118,3388; 2140,3390"
  },

{ "type" : "pointille",
  "polyline" : " 1908,3308; 1930,3308; 1950,3308; 1972,3306; 1992,3308; 2012,3308; 2034,3308; 2054,3308; 2074,3306; 2096,3308; 2116,3306; 2138,3308"
  },

{ "type" : "pointille",
  "polyline" : " 2198,3388; 2218,3388; 2238,3388"
  },

{ "type" : "pointille",
  "polyline" : " 2276,3264; 2298,3264"
  },

{ "type" : "pointille",
  "polyline" : " 2278,3304; 2298,3304"
  },

{ "type" : "pointille",
  "polyline" : " 2278,3346; 2300,3346"
  },

{ "type" : "pointille",
  "polyline" : " 2280,3386; 2300,3388"
  },

{ "type" : "pointille",
  "polyline" : " 2282,3426; 2302,3428"
  },

{ "type" : "pointille",
  "polyline" : " 2362,3386; 2382,3386; 2404,3386"
  },

{ "type" : "pointille",
  "polyline" : " 2442,3302; 2462,3302"
  },

{ "type" : "pointille",
  "polyline" : " 2442,3260; 2462,3260"
  },

{ "type" : "pointille",
  "polyline" : " 2444,3384; 2464,3384"
  },

{ "type" : "pointille",
  "polyline" : " 2444,3426; 2466,3426"
  },

{ "type" : "pointille",
  "polyline" : " 2444,3344; 2464,3344"
  },

{ "type" : "pointille",
  "polyline" : " 2504,3344; 2524,3342; 2546,3342; 2566,3342"
  },

{ "type" : "pointille",
  "polyline" : " 2524,3260; 2544,3260; 2566,3260"
  },

{ "type" : "pointille",
  "polyline" : " 2524,3300; 2544,3300; 2566,3302"
  },

{ "type" : "pointille",
  "polyline" : " 2526,3384; 2546,3384; 2568,3382"
  },

{ "type" : "pointille",
  "polyline" : " 2528,3424; 2548,3424; 2568,3424"
  },

{ "type" : "pointille",
  "polyline" : " 2606,3260; 2626,3260; 2646,3258"
  },

{ "type" : "pointille",
  "polyline" : " 2606,3300; 2626,3300; 2648,3300"
  },

{ "type" : "pointille",
  "polyline" : " 2608,3384; 2628,3384; 2650,3382"
  },

{ "type" : "pointille",
  "polyline" : " 2608,3342; 2628,3342; 2648,3342"
  },

{ "type" : "pointille",
  "polyline" : " 2610,3424; 2630,3424; 2650,3424"
  },

{ "type" : "pointille",
  "polyline" : " 2796,3294; 2816,3294; 2836,3298; 2856,3296"
  },

{ "type" : "pointille",
  "polyline" : " 2796,3378; 2816,3376; 2838,3380; 2858,3378"
  },

{ "type" : "pointille",
  "polyline" : " 2796,3336; 2816,3336; 2836,3338; 2858,3338"
  },

{ "type" : "pointille",
  "polyline" : " 2838,3420; 2858,3420"
  },

{ "type" : "pointille",
  "polyline" : " 660,3496; 674,3492"
  },

{ "type" : "pointille",
  "polyline" : " 1438,3600; 1460,3600; 1480,3600; 1500,3598"
  },

{ "type" : "pointille",
  "polyline" : " 1482,3558; 1504,3558; 1522,3556; 1544,3558; 1564,3558; 1584,3558; 1606,3558; 1626,3558; 1646,3558; 1666,3556; 1688,3558; 1708,3556; 1728,3556; 1750,3556; 1770,3556; 1790,3556; 1812,3556; 1832,3554; 1852,3556; 1874,3556; 1894,3554; 1914,3554; 1936,3554; 1956,3554; 1976,3554; 1996,3554; 2018,3554; 2038,3554; 2058,3554; 2080,3554; 2100,3554"
  },

{ "type" : "pointille",
  "polyline" : " 1540,3598; 1562,3598"
  },

{ "type" : "pointille",
  "polyline" : " 1576,3476; 1596,3474; 1616,3474"
  },

{ "type" : "pointille",
  "polyline" : " 1602,3598; 1624,3598; 1644,3598; 1664,3598; 1686,3598; 1706,3598; 1726,3598; 1748,3596; 1768,3598; 1788,3596; 1808,3596; 1830,3596; 1850,3596; 1872,3596; 1892,3596; 1912,3596; 1932,3596; 1952,3596; 1976,3596; 1994,3596; 2016,3596; 2038,3596; 2060,3596; 2080,3594; 2100,3596; 2122,3596; 2142,3596"
  },

{ "type" : "pointille",
  "polyline" : " 1658,3474; 1678,3474; 1698,3474; 1718,3474; 1740,3474; 1756,3474; 1772,3474; 1794,3472; 1814,3472; 1834,3472; 1854,3472; 1876,3472; 1896,3472; 1916,3472; 1938,3472; 1956,3472; 1976,3472; 1998,3470; 2018,3472; 2040,3472; 2060,3472; 2080,3470; 2102,3472; 2120,3472; 2142,3470"
  },

{ "type" : "pointille",
  "polyline" : " 1712,3516; 1734,3516; 1754,3516; 1774,3514; 1794,3516; 1814,3514; 1836,3514; 1856,3516; 1876,3514; 1896,3514; 1918,3514; 1938,3514; 1958,3514; 1978,3514; 1998,3514; 2020,3514; 2040,3514; 2060,3514; 2080,3514; 2102,3514; 2122,3514; 2142,3514"
  },

{ "type" : "pointille",
  "polyline" : " 2200,3470; 2220,3470; 2242,3468"
  },

{ "type" : "pointille",
  "polyline" : " 2220,3510; 2242,3510"
  },

{ "type" : "pointille",
  "polyline" : " 2282,3552; 2302,3550"
  },

{ "type" : "pointille",
  "polyline" : " 2282,3468; 2302,3470"
  },

{ "type" : "pointille",
  "polyline" : " 2282,3510; 2304,3510"
  },

{ "type" : "pointille",
  "polyline" : " 2364,3468; 2384,3466; 2406,3466"
  },

{ "type" : "pointille",
  "polyline" : " 2364,3510; 2384,3508; 2404,3508"
  },

{ "type" : "pointille",
  "polyline" : " 2366,3550; 2384,3548; 2406,3548"
  },

{ "type" : "pointille",
  "polyline" : " 2426,3590; 2448,3590"
  },

{ "type" : "pointille",
  "polyline" : " 2446,3466; 2466,3466"
  },

{ "type" : "pointille",
  "polyline" : " 2446,3508; 2466,3506"
  },

{ "type" : "pointille",
  "polyline" : " 2446,3548; 2468,3548"
  },

{ "type" : "pointille",
  "polyline" : " 2528,3466; 2548,3466; 2570,3464"
  },

{ "type" : "pointille",
  "polyline" : " 2528,3506; 2548,3506; 2570,3504"
  },

{ "type" : "pointille",
  "polyline" : " 2528,3548; 2550,3548; 2570,3546"
  },

{ "type" : "pointille",
  "polyline" : " 2610,3466; 2630,3464; 2652,3464"
  },

{ "type" : "pointille",
  "polyline" : " 2610,3506; 2632,3506; 2652,3506"
  },

{ "type" : "pointille",
  "polyline" : " 2612,3548; 2632,3548; 2652,3546"
  },

{ "type" : "pointille",
  "polyline" : " 2630,3588; 2650,3588"
  },

{ "type" : "pointille",
  "polyline" : " 2798,3582; 2818,3582; 2840,3584; 2860,3584"
  },

{ "type" : "pointille",
  "polyline" : " 2798,3500; 2818,3500; 2840,3502; 2860,3502"
  },

{ "type" : "pointille",
  "polyline" : " 2798,3458; 2818,3458; 2840,3460; 2860,3460"
  },

{ "type" : "pointille",
  "polyline" : " 2798,3542; 2820,3540; 2840,3542; 2860,3542"
  },

{ "type" : "pointille",
  "polyline" : " 1342,3644; 1362,3642; 1382,3642; 1402,3642; 1422,3642; 1444,3642; 1464,3642; 1484,3640; 1504,3640; 1524,3640; 1544,3642; 1566,3640; 1586,3640; 1606,3640; 1626,3640; 1648,3640; 1668,3640; 1688,3638; 1710,3640; 1730,3638; 1750,3640; 1770,3638; 1792,3638; 1812,3638; 1834,3638; 1854,3638; 1874,3638; 1894,3636; 1914,3636; 1936,3636; 1956,3638; 1976,3638; 1998,3636; 2018,3636; 2038,3638; 2060,3636; 2080,3634; 2100,3636; 2122,3636; 2142,3636"
  },

{ "type" : "pointille",
  "polyline" : " 1362,3682; 1380,3684; 1400,3682; 1420,3682; 1442,3682"
  },

{ "type" : "pointille",
  "polyline" : " 1480,3682; 1502,3682; 1522,3682"
  },

{ "type" : "pointille",
  "polyline" : " 1584,3680; 1606,3682; 1626,3680; 1646,3682; 1666,3682; 1686,3680; 1708,3680; 1728,3680; 1750,3680"
  },

{ "type" : "pointille",
  "polyline" : " 1772,3722; 1792,3722"
  },

{ "type" : "pointille",
  "polyline" : " 1774,3762; 1794,3762; 1814,3762; 1834,3762; 1854,3762; 1876,3762; 1896,3762; 1916,3762; 1938,3760; 1958,3762; 1978,3760; 1998,3762; 2018,3760; 2038,3760; 2060,3760; 2080,3760; 2102,3760; 2122,3760; 2142,3760"
  },

{ "type" : "pointille",
  "polyline" : " 1790,3680; 1812,3680; 1832,3680; 1852,3680; 1874,3680; 1894,3680; 1916,3678; 1936,3678; 1956,3680; 1978,3678; 1998,3678; 2018,3678; 2038,3678; 2060,3678; 2080,3676; 2102,3676; 2122,3676; 2142,3678"
  },

{ "type" : "pointille",
  "polyline" : " 1832,3720; 1854,3720; 1874,3720; 1896,3720; 1916,3720; 1936,3720; 1958,3722; 1976,3720; 1998,3720; 2018,3720; 2038,3718; 2058,3718; 2080,3718; 2100,3718; 2122,3718"
  },

{ "type" : "pointille",
  "polyline" : " 2200,3676; 2222,3674; 2242,3676"
  },

{ "type" : "pointille",
  "polyline" : " 2282,3676; 2304,3676"
  },

{ "type" : "pointille",
  "polyline" : " 2282,3634; 2302,3634"
  },

{ "type" : "pointille",
  "polyline" : " 2282,3756; 2304,3756"
  },

{ "type" : "pointille",
  "polyline" : " 2282,3716; 2302,3716"
  },

{ "type" : "pointille",
  "polyline" : " 2364,3632; 2386,3630"
  },

{ "type" : "pointille",
  "polyline" : " 2364,3674; 2386,3672; 2406,3672"
  },

{ "type" : "pointille",
  "polyline" : " 2386,3796; 2408,3796"
  },

{ "type" : "pointille",
  "polyline" : " 2426,3630; 2446,3632"
  },

{ "type" : "pointille",
  "polyline" : " 2446,3756; 2468,3754"
  },

{ "type" : "pointille",
  "polyline" : " 2448,3796; 2468,3796"
  },

{ "type" : "pointille",
  "polyline" : " 2448,3714; 2468,3714"
  },

{ "type" : "pointille",
  "polyline" : " 2528,3796; 2550,3796; 2570,3794"
  },

{ "type" : "pointille",
  "polyline" : " 2528,3712; 2550,3712; 2570,3712"
  },

{ "type" : "pointille",
  "polyline" : " 2528,3672; 2550,3672; 2570,3672"
  },

{ "type" : "pointille",
  "polyline" : " 2530,3630; 2550,3630; 2570,3630"
  },

{ "type" : "pointille",
  "polyline" : " 2610,3672; 2632,3672; 2652,3672"
  },

{ "type" : "pointille",
  "polyline" : " 2610,3794; 2632,3794; 2652,3794"
  },

{ "type" : "pointille",
  "polyline" : " 2610,3752; 2632,3752; 2652,3752"
  },

{ "type" : "pointille",
  "polyline" : " 2610,3712; 2632,3712; 2652,3712"
  },

{ "type" : "pointille",
  "polyline" : " 2612,3628; 2632,3630; 2652,3628"
  },

{ "type" : "pointille",
  "polyline" : " 2798,3664; 2818,3664; 2840,3666; 2860,3666"
  },

{ "type" : "pointille",
  "polyline" : " 2798,3748; 2818,3746; 2838,3750; 2860,3748"
  },

{ "type" : "pointille",
  "polyline" : " 2798,3788; 2818,3788; 2838,3790; 2860,3790"
  },

{ "type" : "pointille",
  "polyline" : " 2798,3706; 2818,3706; 2840,3708; 2858,3708"
  },

{ "type" : "pointille",
  "polyline" : " 2840,3626; 2860,3626"
  },

{ "type" : "pointille",
  "polyline" : " 1302,3890; 1322,3890; 1344,3890; 1364,3888; 1386,3888; 1406,3888; 1426,3888; 1446,3888"
  },

{ "type" : "pointille",
  "polyline" : " 1466,3806; 1486,3804; 1506,3804; 1528,3804; 1548,3806; 1568,3806; 1588,3804; 1610,3806; 1630,3804; 1650,3804; 1670,3804; 1692,3804; 1712,3804; 1732,3804; 1754,3804; 1774,3804; 1796,3804; 1814,3802; 1836,3802"
  },

{ "type" : "pointille",
  "polyline" : " 1488,3888; 1508,3886; 1528,3886; 1548,3886"
  },

{ "type" : "pointille",
  "polyline" : " 1590,3886; 1610,3884; 1632,3886; 1652,3886; 1672,3886; 1694,3886; 1714,3886; 1734,3886; 1754,3886; 1776,3886; 1796,3886; 1816,3886; 1838,3886; 1856,3886; 1876,3884; 1898,3886; 1918,3884; 1938,3884"
  },

{ "type" : "pointille",
  "polyline" : " 1612,3846; 1632,3846; 1652,3846; 1674,3846; 1694,3846; 1714,3846; 1736,3844; 1754,3846; 1776,3844; 1796,3844; 1816,3844; 1838,3846; 1858,3846; 1878,3846; 1898,3846; 1918,3844; 1940,3846; 1960,3844; 1980,3844; 2000,3844; 2020,3844; 2042,3844; 2062,3844; 2082,3842; 2102,3844; 2122,3842; 2144,3842"
  },

{ "type" : "pointille",
  "polyline" : " 1714,3926; 1736,3926; 1756,3926; 1776,3926; 1796,3928; 1818,3926; 1838,3926; 1858,3928; 1878,3928; 1898,3926; 1920,3926"
  },

{ "type" : "pointille",
  "polyline" : " 1736,3968; 1754,3968; 1774,3968; 1794,3968; 1816,3968; 1836,3968; 1856,3968; 1876,3968; 1898,3968; 1918,3968; 1938,3966; 1958,3966"
  },

{ "type" : "pointille",
  "polyline" : " 1876,3804; 1896,3804; 1918,3802; 1938,3802; 1958,3802; 1980,3804; 2000,3802; 2020,3802; 2040,3802; 2060,3802; 2080,3800; 2102,3802; 2122,3800; 2142,3800"
  },

{ "type" : "pointille",
  "polyline" : " 1978,3884; 2000,3884; 2020,3882; 2040,3884; 2062,3884; 2082,3884; 2102,3884; 2124,3884; 2144,3884"
  },

{ "type" : "pointille",
  "polyline" : " 1980,3926; 2000,3926; 2020,3926; 2042,3924; 2062,3926; 2082,3924; 2104,3926; 2124,3926; 2144,3924"
  },

{ "type" : "pointille",
  "polyline" : " 2000,3966; 2020,3966; 2042,3966; 2062,3966; 2082,3966; 2104,3966; 2124,3966; 2144,3966"
  },

{ "type" : "pointille",
  "polyline" : " 2202,3882; 2224,3882; 2244,3882"
  },

{ "type" : "pointille",
  "polyline" : " 2222,3800; 2242,3798"
  },

{ "type" : "pointille",
  "polyline" : " 2284,3922; 2306,3922"
  },

{ "type" : "pointille",
  "polyline" : " 2284,3798; 2304,3800"
  },

{ "type" : "pointille",
  "polyline" : " 2284,3880; 2306,3882"
  },

{ "type" : "pointille",
  "polyline" : " 2286,3964; 2306,3964"
  },

{ "type" : "pointille",
  "polyline" : " 2366,3880; 2388,3878; 2408,3878"
  },

{ "type" : "pointille",
  "polyline" : " 2448,3920; 2468,3920"
  },

{ "type" : "pointille",
  "polyline" : " 2448,3878; 2468,3878"
  },

{ "type" : "pointille",
  "polyline" : " 2450,3960; 2470,3962"
  },

{ "type" : "pointille",
  "polyline" : " 2530,3878; 2550,3878; 2572,3878"
  },

{ "type" : "pointille",
  "polyline" : " 2530,3838; 2550,3838; 2570,3836"
  },

{ "type" : "pointille",
  "polyline" : " 2530,3918; 2550,3918; 2572,3918"
  },

{ "type" : "pointille",
  "polyline" : " 2532,3962; 2552,3960; 2572,3960"
  },

{ "type" : "pointille",
  "polyline" : " 2612,3836; 2632,3836; 2652,3836"
  },

{ "type" : "pointille",
  "polyline" : " 2612,3918; 2632,3918; 2652,3918"
  },

{ "type" : "pointille",
  "polyline" : " 2612,3960; 2634,3960; 2654,3960"
  },

{ "type" : "pointille",
  "polyline" : " 2612,3878; 2632,3878; 2652,3876"
  },

{ "type" : "pointille",
  "polyline" : " 2798,3954; 2818,3952; 2840,3954; 2860,3954"
  },

{ "type" : "pointille",
  "polyline" : " 2798,3870; 2818,3870; 2838,3872; 2860,3872"
  },

{ "type" : "pointille",
  "polyline" : " 2798,3830; 2818,3830; 2838,3830; 2860,3832"
  },

{ "type" : "pointille",
  "polyline" : " 2798,3912; 2818,3912; 2840,3914; 2860,3914"
  },

{ "type" : "pointille",
  "polyline" : " 1402,4052; 1424,4052; 1444,4052; 1464,4052; 1486,4052; 1506,4052; 1528,4052; 1546,4052; 1566,4052; 1588,4050; 1608,4050; 1628,4050; 1648,4052; 1670,4050; 1690,4052; 1712,4052; 1734,4050; 1754,4050; 1774,4050; 1794,4050; 1816,4052; 1834,4050; 1856,4050; 1876,4052; 1896,4050; 1918,4050; 1938,4050; 1958,4050; 1978,4050; 2000,4050; 2020,4048; 2040,4048; 2062,4050; 2084,4048; 2104,4048; 2124,4048; 2146,4048"
  },

{ "type" : "pointille",
  "polyline" : " 1692,4010; 1714,4010; 1734,4010; 1754,4010; 1776,4010; 1796,4010; 1816,4010; 1838,4008; 1858,4010; 1878,4010; 1898,4008; 1920,4010; 1940,4008; 1960,4008; 1980,4008"
  },

{ "type" : "pointille",
  "polyline" : " 1880,4134; 1900,4132; 1922,4132; 1942,4132; 1962,4134; 1982,4132; 2004,4132; 2022,4134; 2044,4132; 2064,4132; 2084,4132; 2106,4130; 2126,4132; 2146,4130"
  },

{ "type" : "pointille",
  "polyline" : " 2020,4004; 2042,4008; 2062,4008; 2084,4008; 2104,4008; 2124,4008; 2144,4008"
  },

{ "type" : "pointille",
  "polyline" : " 2206,4088; 2226,4088; 2246,4086"
  },

{ "type" : "pointille",
  "polyline" : " 2206,4128; 2226,4128; 2246,4128"
  },

{ "type" : "pointille",
  "polyline" : " 2286,4086; 2308,4086"
  },

{ "type" : "pointille",
  "polyline" : " 2286,4044; 2306,4046"
  },

{ "type" : "pointille",
  "polyline" : " 2286,4128; 2308,4128"
  },

{ "type" : "pointille",
  "polyline" : " 2286,4004; 2306,4004"
  },

{ "type" : "pointille",
  "polyline" : " 2368,4126; 2390,4124; 2410,4126"
  },

{ "type" : "pointille",
  "polyline" : " 2368,4086; 2388,4086; 2410,4086"
  },

{ "type" : "pointille",
  "polyline" : " 2448,4042; 2470,4044"
  },

{ "type" : "pointille",
  "polyline" : " 2450,4126; 2470,4124"
  },

{ "type" : "pointille",
  "polyline" : " 2450,4086; 2470,4086"
  },

{ "type" : "pointille",
  "polyline" : " 2510,4044; 2532,4044; 2552,4044; 2572,4042"
  },

{ "type" : "pointille",
  "polyline" : " 2530,4124; 2552,4126; 2572,4126"
  },

{ "type" : "pointille",
  "polyline" : " 2530,4084; 2552,4084; 2572,4084"
  },

{ "type" : "pointille",
  "polyline" : " 2612,4124; 2634,4124; 2654,4124"
  },

{ "type" : "pointille",
  "polyline" : " 2612,4044; 2634,4042; 2654,4042"
  },

{ "type" : "pointille",
  "polyline" : " 2614,4084; 2634,4084; 2654,4084"
  },

{ "type" : "pointille",
  "polyline" : " 2798,4078; 2820,4076; 2840,4078; 2860,4080"
  },

{ "type" : "pointille",
  "polyline" : " 2800,4120; 2820,4118; 2840,4120; 2860,4120"
  },

{ "type" : "pointille",
  "polyline" : " 2840,4038; 2860,4038"
  },

{ "type" : "pointille",
  "polyline" : " 2840,3996; 2860,3996"
  },

{ "type" : "pointille",
  "polyline" : " 1370,4218; 1390,4218; 1410,4218; 1432,4218; 1452,4216; 1472,4218; 1492,4216; 1514,4216; 1534,4218; 1554,4218; 1574,4216; 1596,4216; 1616,4216; 1636,4216; 1656,4216; 1676,4216; 1698,4216; 1718,4216; 1738,4216; 1760,4216; 1780,4216; 1800,4216; 1820,4216; 1840,4216; 1862,4216; 1882,4214; 1902,4216; 1922,4216; 1942,4216; 1964,4216; 1984,4216; 2004,4216; 2024,4216; 2046,4216; 2066,4214; 2086,4214; 2106,4214; 2126,4214; 2146,4214"
  },

{ "type" : "pointille",
  "polyline" : " 1564,4176; 1578,4174; 1594,4176; 1614,4176; 1636,4176; 1656,4176; 1676,4176; 1696,4176; 1718,4176; 1738,4176; 1758,4176; 1778,4174; 1800,4174; 1820,4174; 1840,4174; 1860,4174; 1882,4174; 1902,4174; 1922,4174; 1942,4174; 1962,4174; 1984,4174; 2004,4174; 2024,4174; 2044,4174; 2064,4174; 2084,4172; 2106,4174; 2126,4174; 2146,4174"
  },

{ "type" : "pointille",
  "polyline" : " 1636,4258; 1656,4258; 1676,4258; 1698,4258; 1718,4258; 1738,4258; 1758,4258; 1780,4258; 1800,4256; 1820,4256; 1840,4256; 1862,4256; 1882,4256; 1902,4256; 1922,4256; 1944,4256; 1964,4256; 1984,4256; 2004,4256; 2024,4256; 2044,4256; 2066,4256; 2086,4256; 2106,4256; 2128,4256; 2148,4256"
  },

{ "type" : "pointille",
  "polyline" : " 1798,4298; 1818,4298; 1838,4298; 1860,4298; 1880,4298; 1900,4298; 1922,4298; 1942,4298; 1962,4298; 1982,4298; 2002,4298; 2022,4298; 2044,4296; 2064,4298; 2084,4298; 2104,4296; 2126,4296; 2146,4296"
  },

{ "type" : "pointille",
  "polyline" : " 2286,4210; 2308,4210"
  },

{ "type" : "pointille",
  "polyline" : " 2286,4250; 2308,4252"
  },

{ "type" : "pointille",
  "polyline" : " 2288,4292; 2308,4292"
  },

{ "type" : "pointille",
  "polyline" : " 2450,4210; 2472,4208"
  },

{ "type" : "pointille",
  "polyline" : " 2450,4250; 2470,4250"
  },

{ "type" : "pointille",
  "polyline" : " 2450,4168; 2470,4168"
  },

{ "type" : "pointille",
  "polyline" : " 2452,4292; 2472,4290"
  },

{ "type" : "pointille",
  "polyline" : " 2532,4208; 2552,4208; 2572,4208"
  },

{ "type" : "pointille",
  "polyline" : " 2532,4166; 2552,4168; 2572,4166"
  },

{ "type" : "pointille",
  "polyline" : " 2534,4248; 2552,4248"
  },

{ "type" : "pointille",
  "polyline" : " 2612,4208; 2634,4208; 2654,4206"
  },

{ "type" : "pointille",
  "polyline" : " 2614,4252; 2634,4248; 2654,4248"
  },

{ "type" : "pointille",
  "polyline" : " 2614,4166; 2634,4166; 2654,4166"
  },

{ "type" : "pointille",
  "polyline" : " 2800,4202; 2822,4202; 2840,4202; 2860,4202"
  },

{ "type" : "pointille",
  "polyline" : " 2800,4244; 2822,4242; 2840,4244; 2862,4244"
  },

{ "type" : "pointille",
  "polyline" : " 2840,4286; 2860,4286"
  },

{ "type" : "pointille",
  "polyline" : " 2840,4160; 2860,4162"
  },

{ "type" : "pointille",
  "polyline" : " 1372,4546; 1392,4546; 1414,4546; 1434,4546; 1454,4546; 1474,4546; 1496,4546; 1516,4544; 1536,4546; 1556,4544; 1578,4544; 1598,4544; 1618,4544; 1638,4544; 1658,4544; 1680,4544; 1700,4544; 1720,4544; 1740,4542; 1760,4542; 1782,4542; 1800,4542; 1822,4542; 1842,4542; 1862,4542; 1884,4542; 1904,4542; 1924,4542; 1944,4542; 1964,4542; 1984,4542; 2006,4540; 2026,4542; 2046,4542; 2066,4542; 2086,4542; 2106,4542; 2128,4540; 2148,4542"
  },

{ "type" : "pointille",
  "polyline" : " 1514,4668; 1534,4668; 1554,4668; 1574,4666; 1596,4666; 1618,4668; 1638,4668; 1658,4668; 1678,4666; 1700,4666; 1718,4666; 1740,4666; 1760,4666; 1782,4666; 1802,4666; 1822,4666; 1842,4666; 1862,4666; 1884,4666; 1904,4666; 1924,4666; 1944,4666; 1964,4666; 1984,4666; 2006,4666; 2026,4666; 2046,4664; 2068,4666; 2086,4664; 2108,4666; 2128,4666; 2148,4666"
  },

{ "type" : "pointille",
  "polyline" : " 1948,4622; 1964,4624; 1984,4624; 2006,4624; 2026,4624; 2046,4624; 2066,4624; 2086,4624; 2108,4624; 2128,4624; 2148,4626"
  },

{ "type" : "pointille",
  "polyline" : " 2206,4624; 2228,4624; 2248,4622"
  },

{ "type" : "pointille",
  "polyline" : " 2226,4542; 2246,4540"
  },

{ "type" : "pointille",
  "polyline" : " 2288,4582; 2308,4582"
  },

{ "type" : "pointille",
  "polyline" : " 2288,4540; 2308,4540"
  },

{ "type" : "pointille",
  "polyline" : " 2288,4664; 2308,4664"
  },

{ "type" : "pointille",
  "polyline" : " 2288,4624; 2308,4622"
  },

{ "type" : "pointille",
  "polyline" : " 2370,4622; 2390,4622; 2412,4622"
  },

{ "type" : "pointille",
  "polyline" : " 2388,4540; 2410,4540"
  },

{ "type" : "pointille",
  "polyline" : " 2450,4540; 2470,4540"
  },

{ "type" : "pointille",
  "polyline" : " 2450,4580; 2470,4582"
  },

{ "type" : "pointille",
  "polyline" : " 2452,4622; 2472,4622"
  },

{ "type" : "pointille",
  "polyline" : " 2452,4664; 2472,4664"
  },

{ "type" : "pointille",
  "polyline" : " 2532,4622; 2554,4622; 2574,4622"
  },

{ "type" : "pointille",
  "polyline" : " 2532,4540; 2552,4540; 2572,4540"
  },

{ "type" : "pointille",
  "polyline" : " 2552,4582; 2572,4582"
  },

{ "type" : "pointille",
  "polyline" : " 2552,4664; 2574,4664"
  },

{ "type" : "pointille",
  "polyline" : " 2612,4582; 2634,4582; 2654,4582"
  },

{ "type" : "pointille",
  "polyline" : " 2612,4540; 2634,4540; 2654,4540"
  },

{ "type" : "pointille",
  "polyline" : " 2614,4664; 2634,4664; 2654,4664"
  },

{ "type" : "pointille",
  "polyline" : " 2614,4622; 2634,4622; 2654,4622"
  },

{ "type" : "pointille",
  "polyline" : " 2800,4534; 2822,4534; 2842,4534; 2862,4534"
  },

{ "type" : "pointille",
  "polyline" : " 2800,4576; 2822,4576; 2842,4576; 2862,4576"
  },

{ "type" : "pointille",
  "polyline" : " 2802,4658; 2822,4658; 2842,4658; 2862,4658"
  },

{ "type" : "pointille",
  "polyline" : " 2842,4618; 2862,4616"
  },

{ "type" : "pointille",
  "polyline" : " 1270,4876; 1290,4876; 1312,4876; 1332,4874; 1352,4872; 1372,4874; 1394,4874; 1414,4874; 1434,4874; 1454,4874; 1476,4874; 1496,4874; 1518,4874; 1538,4872; 1558,4874"
  },

{ "type" : "pointille",
  "polyline" : " 1306,4712; 1328,4710; 1348,4712; 1368,4710; 1390,4710; 1410,4710; 1430,4710; 1452,4710; 1472,4710; 1492,4708; 1512,4710; 1532,4710; 1554,4708; 1574,4708; 1594,4708; 1616,4708; 1636,4708; 1656,4708; 1676,4708; 1698,4708; 1718,4708; 1738,4708; 1760,4706; 1780,4706; 1800,4706; 1820,4706; 1840,4706; 1862,4706; 1882,4706; 1902,4706; 1922,4706; 1944,4706; 1964,4706; 1984,4706; 2004,4708; 2026,4706; 2046,4706; 2066,4706; 2088,4708; 2108,4706; 2128,4708; 2148,4706"
  },

{ "type" : "pointille",
  "polyline" : " 1582,4832; 1602,4832; 1624,4832; 1644,4832; 1664,4832; 1684,4832; 1706,4830; 1726,4830; 1746,4830; 1768,4830"
  },

{ "type" : "pointille",
  "polyline" : " 1596,4790; 1616,4790; 1636,4788; 1658,4790; 1678,4790; 1698,4790; 1720,4790; 1740,4790; 1760,4788"
  },

{ "type" : "pointille",
  "polyline" : " 1596,4750; 1618,4750; 1638,4750; 1658,4750; 1680,4748; 1700,4748; 1720,4748; 1742,4748; 1762,4748"
  },

{ "type" : "pointille",
  "polyline" : " 1598,4872; 1620,4872; 1640,4872; 1660,4872; 1680,4872; 1702,4872; 1722,4872; 1742,4872; 1762,4872; 1784,4872; 1804,4870; 1824,4872; 1844,4870; 1864,4872; 1884,4872; 1906,4870; 1926,4872; 1946,4872; 1968,4872; 1986,4870; 2008,4872; 2028,4872; 2048,4870; 2068,4872; 2088,4870; 2108,4872; 2130,4872; 2150,4872"
  },

{ "type" : "pointille",
  "polyline" : " 1964,4830; 1984,4830; 2006,4830; 2026,4830; 2046,4830; 2066,4830; 2088,4830; 2108,4830; 2130,4830; 2150,4832"
  },

{ "type" : "pointille",
  "polyline" : " 2228,4746; 2248,4746"
  },

{ "type" : "pointille",
  "polyline" : " 2288,4748; 2310,4746"
  },

{ "type" : "pointille",
  "polyline" : " 2288,4706; 2308,4706"
  },

{ "type" : "pointille",
  "polyline" : " 2290,4830; 2310,4830"
  },

{ "type" : "pointille",
  "polyline" : " 2290,4788; 2310,4788"
  },

{ "type" : "pointille",
  "polyline" : " 2392,4746; 2412,4746"
  },

{ "type" : "pointille",
  "polyline" : " 2452,4706; 2472,4706"
  },

{ "type" : "pointille",
  "polyline" : " 2452,4830; 2472,4828"
  },

{ "type" : "pointille",
  "polyline" : " 2452,4870; 2472,4870"
  },

{ "type" : "pointille",
  "polyline" : " 2454,4788; 2474,4788"
  },

{ "type" : "pointille",
  "polyline" : " 2454,4746; 2474,4746"
  },

{ "type" : "pointille",
  "polyline" : " 2534,4828; 2554,4830; 2574,4830"
  },

{ "type" : "pointille",
  "polyline" : " 2534,4870; 2554,4870; 2574,4870"
  },

{ "type" : "pointille",
  "polyline" : " 2552,4746; 2574,4746"
  },

{ "type" : "pointille",
  "polyline" : " 2552,4704; 2574,4704"
  },

{ "type" : "pointille",
  "polyline" : " 2614,4870; 2636,4870; 2656,4870"
  },

{ "type" : "pointille",
  "polyline" : " 2614,4706; 2634,4706; 2654,4704"
  },

{ "type" : "pointille",
  "polyline" : " 2614,4746; 2634,4746; 2654,4746"
  },

{ "type" : "pointille",
  "polyline" : " 2616,4828; 2636,4828; 2656,4828"
  },

{ "type" : "pointille",
  "polyline" : " 2802,4782; 2822,4784; 2842,4782; 2862,4782"
  },

{ "type" : "pointille",
  "polyline" : " 2802,4824; 2822,4824; 2842,4824; 2862,4824"
  },

{ "type" : "pointille",
  "polyline" : " 2842,4740; 2862,4740"
  },

{ "type" : "pointille",
  "polyline" : " 2842,4700; 2862,4700"
  },

{ "type" : "pointille",
  "polyline" : " 2844,4864; 2864,4864"
  },

{ "type" : "pointille",
  "polyline" : " 1580,5034; 1596,5038; 1618,5036; 1638,5036; 1658,5036; 1678,5036; 1700,5036; 1718,5036; 1740,5036; 1760,5034"
  },

{ "type" : "pointille",
  "polyline" : " 1580,4996; 1600,4996; 1620,4996; 1640,4996; 1662,4996; 1682,4996; 1702,4996; 1722,4996; 1742,4994; 1764,4994"
  },

{ "type" : "pointille",
  "polyline" : " 1618,4914; 1638,4912; 1658,4914; 1680,4914; 1700,4914; 1720,4912; 1740,4914; 1762,4912"
  },

{ "type" : "pointille",
  "polyline" : " 1620,4954; 1638,4956; 1658,4954; 1678,4954; 1698,4954; 1720,4954; 1740,4954; 1760,4954"
  },

{ "type" : "pointille",
  "polyline" : " 1964,4954; 1984,4954; 2006,4954; 2026,4954; 2046,4954; 2066,4954; 2088,4954; 2108,4952; 2130,4954; 2150,4954"
  },

{ "type" : "pointille",
  "polyline" : " 1966,5036; 1986,5036; 2008,5036; 2028,5036; 2048,5036; 2068,5036; 2088,5036; 2110,5036; 2130,5036; 2150,5038"
  },

{ "type" : "pointille",
  "polyline" : " 2208,5036; 2230,5034; 2250,5034"
  },

{ "type" : "pointille",
  "polyline" : " 2208,4952; 2228,4952; 2250,4954"
  },

{ "type" : "pointille",
  "polyline" : " 2228,4912; 2248,4912"
  },

{ "type" : "pointille",
  "polyline" : " 2290,4994; 2310,4994"
  },

{ "type" : "pointille",
  "polyline" : " 2290,5034; 2310,5034"
  },

{ "type" : "pointille",
  "polyline" : " 2290,4912; 2310,4912"
  },

{ "type" : "pointille",
  "polyline" : " 2290,4952; 2310,4952"
  },

{ "type" : "pointille",
  "polyline" : " 2370,4912; 2392,4910; 2412,4910"
  },

{ "type" : "pointille",
  "polyline" : " 2372,5032; 2392,5034; 2412,5034"
  },

{ "type" : "pointille",
  "polyline" : " 2372,4952; 2392,4952; 2412,4952"
  },

{ "type" : "pointille",
  "polyline" : " 2452,4952; 2474,4952"
  },

{ "type" : "pointille",
  "polyline" : " 2452,4910; 2474,4912"
  },

{ "type" : "pointille",
  "polyline" : " 2454,4994; 2474,4994"
  },

{ "type" : "pointille",
  "polyline" : " 2454,5036; 2474,5036"
  },

{ "type" : "pointille",
  "polyline" : " 2534,4912; 2554,4912; 2574,4912"
  },

{ "type" : "pointille",
  "polyline" : " 2534,5036; 2556,5036; 2576,5034"
  },

{ "type" : "pointille",
  "polyline" : " 2534,4952; 2554,4952; 2576,4952"
  },

{ "type" : "pointille",
  "polyline" : " 2534,4994; 2556,4994; 2576,4994"
  },

{ "type" : "pointille",
  "polyline" : " 2616,5034; 2638,5034; 2658,5034"
  },

{ "type" : "pointille",
  "polyline" : " 2616,4952; 2636,4952; 2658,4952"
  },

{ "type" : "pointille",
  "polyline" : " 2616,4910; 2636,4912; 2656,4910"
  },

{ "type" : "pointille",
  "polyline" : " 2616,4994; 2636,4994; 2658,4994"
  },

{ "type" : "pointille",
  "polyline" : " 2802,4908; 2824,4906; 2844,4906; 2864,4906"
  },

{ "type" : "pointille",
  "polyline" : " 2804,4948; 2824,4948; 2844,4948; 2864,4948"
  },

{ "type" : "pointille",
  "polyline" : " 2804,4988; 2824,4990; 2846,4988; 2866,4988"
  },

{ "type" : "pointille",
  "polyline" : " 2806,5030; 2826,5032; 2846,5030; 2866,5030"
  },

{ "type" : "pointille",
  "polyline" : " 1348,5202; 1368,5204; 1390,5202; 1410,5202; 1430,5204; 1452,5202; 1472,5202; 1492,5202; 1512,5202; 1534,5200; 1554,5200; 1574,5202; 1596,5202; 1616,5202; 1636,5200; 1656,5200; 1676,5200; 1696,5200; 1718,5200; 1738,5200; 1758,5198"
  },

{ "type" : "pointille",
  "polyline" : " 1352,5162; 1372,5162; 1392,5162"
  },

{ "type" : "pointille",
  "polyline" : " 1434,5162; 1454,5162; 1474,5160; 1496,5160; 1516,5160; 1536,5160; 1558,5160; 1578,5160; 1598,5160; 1618,5160; 1640,5158; 1660,5160; 1680,5160; 1702,5158; 1722,5158; 1742,5158; 1762,5158; 1784,5158; 1804,5160; 1824,5160; 1844,5158; 1864,5156; 1886,5158; 1906,5158; 1926,5160; 1948,5158; 1968,5158; 1988,5158; 2008,5158; 2030,5158; 2048,5156; 2070,5160; 2090,5158; 2110,5158; 2132,5160; 2152,5160"
  },

{ "type" : "pointille",
  "polyline" : " 1538,5078; 1556,5078; 1576,5078; 1596,5078; 1618,5078; 1638,5078; 1658,5078; 1678,5078; 1700,5076; 1720,5078; 1740,5078; 1760,5078"
  },

{ "type" : "pointille",
  "polyline" : " 2048,5118; 2068,5118"
  },

{ "type" : "pointille",
  "polyline" : " 2290,5158; 2312,5158"
  },

{ "type" : "pointille",
  "polyline" : " 2290,5076; 2310,5076"
  },

{ "type" : "pointille",
  "polyline" : " 2292,5200; 2312,5200"
  },

{ "type" : "pointille",
  "polyline" : " 2454,5158; 2476,5158"
  },

{ "type" : "pointille",
  "polyline" : " 2456,5200; 2476,5200"
  },

{ "type" : "pointille",
  "polyline" : " 2534,5076; 2556,5076; 2576,5076"
  },

{ "type" : "pointille",
  "polyline" : " 2536,5158; 2558,5158; 2578,5158"
  },

{ "type" : "pointille",
  "polyline" : " 2538,5198; 2558,5200; 2578,5200"
  },

{ "type" : "pointille",
  "polyline" : " 2618,5158; 2640,5156; 2660,5158"
  },

{ "type" : "pointille",
  "polyline" : " 2618,5200; 2638,5200; 2660,5200"
  },

{ "type" : "pointille",
  "polyline" : " 2806,5194; 2826,5194; 2848,5194; 2868,5194"
  },

{ "type" : "pointille",
  "polyline" : " 2806,5070; 2824,5072; 2846,5070; 2866,5070"
  },

{ "type" : "pointille",
  "polyline" : " 2806,5236; 2826,5236; 2848,5236; 2868,5236"
  },

{ "type" : "pointille",
  "polyline" : " 2806,5154; 2826,5154; 2848,5152; 2868,5154"
  },

{ "type" : "pointille",
  "polyline" : " 1334,5244; 1352,5246; 1372,5246; 1392,5244; 1414,5244; 1434,5244; 1454,5244; 1476,5244; 1496,5242; 1516,5244; 1536,5244; 1558,5244; 1578,5242; 1598,5242; 1618,5242; 1640,5242; 1660,5242; 1680,5242; 1700,5242; 1720,5242; 1742,5242; 1762,5242"
  },

{ "type" : "pointille",
  "polyline" : " 1478,5326; 1498,5326; 1518,5326; 1540,5326; 1560,5326; 1580,5324; 1600,5324; 1622,5326; 1642,5324"
  },

{ "type" : "pointille",
  "polyline" : " 1478,5366; 1496,5368; 1516,5368; 1536,5366; 1558,5366; 1578,5366; 1598,5366; 1618,5366; 1640,5366; 1660,5366; 1680,5366; 1700,5366; 1720,5366; 1740,5366; 1762,5364"
  },

{ "type" : "pointille",
  "polyline" : " 1682,5324; 1702,5324; 1722,5324; 1744,5324; 1764,5324"
  },

{ "type" : "pointille",
  "polyline" : " 1784,5282; 1804,5282; 1824,5282; 1844,5282; 1866,5284; 1886,5282; 1906,5282; 1926,5280; 1948,5282; 1968,5282; 1988,5282; 2008,5282; 2030,5282; 2050,5282; 2070,5282; 2092,5282; 2114,5282; 2134,5282; 2154,5282"
  },

{ "type" : "pointille",
  "polyline" : " 1954,5364; 1970,5366; 1990,5364; 2012,5364; 2032,5364; 2052,5364; 2072,5364; 2092,5364; 2114,5364; 2134,5364; 2154,5364"
  },

{ "type" : "pointille",
  "polyline" : " 1956,5240; 1972,5238; 1990,5242; 2010,5242; 2032,5242; 2052,5240; 2072,5242; 2092,5242; 2112,5240; 2132,5242; 2154,5240"
  },

{ "type" : "pointille",
  "polyline" : " 2292,5282; 2312,5282"
  },

{ "type" : "pointille",
  "polyline" : " 2292,5240; 2314,5240"
  },

{ "type" : "pointille",
  "polyline" : " 2294,5322; 2316,5324"
  },

{ "type" : "pointille",
  "polyline" : " 2294,5364; 2316,5364"
  },

{ "type" : "pointille",
  "polyline" : " 2458,5364; 2480,5364"
  },

{ "type" : "pointille",
  "polyline" : " 2458,5322; 2478,5322"
  },

{ "type" : "pointille",
  "polyline" : " 2538,5364; 2560,5364; 2580,5364"
  },

{ "type" : "pointille",
  "polyline" : " 2538,5322; 2558,5322; 2578,5322"
  },

{ "type" : "pointille",
  "polyline" : " 2538,5240; 2558,5240; 2578,5240"
  },

{ "type" : "pointille",
  "polyline" : " 2538,5280; 2558,5282; 2578,5282"
  },

{ "type" : "pointille",
  "polyline" : " 2618,5282; 2640,5282; 2660,5282"
  },

{ "type" : "pointille",
  "polyline" : " 2618,5240; 2640,5240; 2660,5240"
  },

{ "type" : "pointille",
  "polyline" : " 2620,5322; 2640,5322; 2660,5322"
  },

{ "type" : "pointille",
  "polyline" : " 2620,5364; 2640,5364; 2660,5364"
  },

{ "type" : "pointille",
  "polyline" : " 2806,5360; 2828,5360; 2848,5360; 2868,5360"
  },

{ "type" : "pointille",
  "polyline" : " 2848,5318; 2868,5318"
  },

{ "type" : "pointille",
  "polyline" : " 1210,5494; 1230,5494; 1250,5494; 1272,5494; 1292,5494; 1312,5494; 1334,5494; 1356,5494; 1376,5492; 1396,5492; 1416,5492; 1436,5492; 1458,5490; 1480,5490; 1500,5490; 1520,5490; 1540,5488; 1562,5490; 1582,5490; 1602,5490; 1624,5490; 1644,5490; 1664,5490; 1684,5490; 1706,5488; 1726,5488; 1746,5488; 1766,5488"
  },

{ "type" : "pointille",
  "polyline" : " 1212,5454; 1232,5452; 1254,5452; 1274,5452; 1294,5452; 1316,5452; 1336,5452; 1356,5450; 1378,5450; 1398,5452; 1418,5450; 1440,5450; 1460,5450; 1480,5450; 1502,5450; 1522,5448; 1542,5450; 1562,5448; 1584,5450; 1604,5448; 1624,5448; 1644,5448; 1664,5448; 1686,5448; 1706,5448; 1726,5448; 1748,5448; 1768,5448"
  },

{ "type" : "pointille",
  "polyline" : " 1460,5532; 1480,5532; 1502,5532; 1522,5532; 1542,5532; 1564,5532; 1584,5532"
  },

{ "type" : "pointille",
  "polyline" : " 1462,5574; 1482,5574; 1502,5574; 1524,5574; 1544,5574; 1564,5574; 1586,5574; 1606,5572; 1626,5572; 1646,5572; 1668,5572; 1688,5572; 1708,5572; 1730,5572; 1750,5572; 1770,5572"
  },

{ "type" : "pointille",
  "polyline" : " 1624,5530; 1646,5530; 1666,5530; 1688,5530; 1708,5530; 1728,5530; 1748,5530; 1768,5530"
  },

{ "type" : "pointille",
  "polyline" : " 1954,5486; 1970,5488; 1990,5490; 2010,5490; 2032,5490; 2052,5488; 2072,5488; 2094,5488; 2112,5488; 2134,5488; 2156,5488"
  },

{ "type" : "pointille",
  "polyline" : " 1956,5570; 1974,5572; 1992,5570; 2014,5570; 2034,5572; 2054,5572; 2074,5572; 2094,5572; 2116,5570; 2136,5572; 2156,5570"
  },

{ "type" : "pointille",
  "polyline" : " 2214,5446; 2234,5446; 2254,5446"
  },

{ "type" : "pointille",
  "polyline" : " 2214,5486; 2234,5488; 2254,5488"
  },

{ "type" : "pointille",
  "polyline" : " 2234,5532; 2256,5528"
  },

{ "type" : "pointille",
  "polyline" : " 2236,5570; 2256,5570"
  },

{ "type" : "pointille",
  "polyline" : " 2294,5530; 2314,5530"
  },

{ "type" : "pointille",
  "polyline" : " 2296,5570; 2318,5572"
  },

{ "type" : "pointille",
  "polyline" : " 2296,5488; 2316,5488"
  },

{ "type" : "pointille",
  "polyline" : " 2296,5448; 2316,5448"
  },

{ "type" : "pointille",
  "polyline" : " 2376,5446; 2398,5446; 2420,5446"
  },

{ "type" : "pointille",
  "polyline" : " 2378,5488; 2398,5488"
  },

{ "type" : "pointille",
  "polyline" : " 2398,5528; 2418,5528"
  },

{ "type" : "pointille",
  "polyline" : " 2400,5570; 2420,5570"
  },

{ "type" : "pointille",
  "polyline" : " 2458,5446; 2480,5446"
  },

{ "type" : "pointille",
  "polyline" : " 2460,5488; 2480,5488"
  },

{ "type" : "pointille",
  "polyline" : " 2460,5570; 2480,5570"
  },

{ "type" : "pointille",
  "polyline" : " 2460,5528; 2480,5528"
  },

{ "type" : "pointille",
  "polyline" : " 2540,5446; 2560,5446; 2580,5448"
  },

{ "type" : "pointille",
  "polyline" : " 2540,5488; 2562,5488; 2582,5488"
  },

{ "type" : "pointille",
  "polyline" : " 2562,5570; 2582,5570"
  },

{ "type" : "pointille",
  "polyline" : " 2620,5446; 2640,5448; 2662,5448"
  },

{ "type" : "pointille",
  "polyline" : " 2622,5570; 2642,5570; 2662,5570"
  },

{ "type" : "pointille",
  "polyline" : " 2622,5488; 2642,5488; 2662,5488"
  },

{ "type" : "pointille",
  "polyline" : " 2622,5528; 2642,5528; 2662,5530"
  },

{ "type" : "pointille",
  "polyline" : " 2808,5528; 2828,5526; 2850,5526; 2870,5526"
  },

{ "type" : "pointille",
  "polyline" : " 2808,5486; 2828,5486; 2848,5486; 2870,5486"
  },

{ "type" : "pointille",
  "polyline" : " 2810,5568; 2830,5568; 2850,5566; 2870,5568"
  },

{ "type" : "pointille",
  "polyline" : " 2848,5444; 2868,5444"
  },

{ "type" : "pointille",
  "polyline" : " 1296,5618; 1316,5618; 1338,5618; 1358,5618; 1378,5616; 1400,5616; 1420,5616; 1440,5616; 1460,5616; 1482,5616; 1502,5614; 1524,5614; 1542,5614; 1564,5614; 1584,5614; 1604,5614; 1626,5614; 1646,5614; 1668,5614; 1688,5614; 1708,5614; 1728,5614; 1750,5612; 1770,5612"
  },

{ "type" : "pointille",
  "polyline" : " 1298,5658; 1318,5658; 1338,5658; 1358,5658; 1380,5658; 1400,5658; 1420,5658; 1440,5658; 1460,5658; 1482,5658; 1502,5656; 1522,5656; 1542,5656; 1564,5656; 1584,5656; 1604,5656; 1626,5656; 1646,5654; 1666,5654; 1686,5654; 1708,5654; 1728,5654; 1748,5654; 1768,5654"
  },

{ "type" : "pointille",
  "polyline" : " 1460,5740; 1480,5740; 1502,5740; 1522,5740; 1542,5740; 1562,5740; 1582,5738; 1604,5738; 1624,5738; 1646,5738; 1666,5738; 1686,5738; 1706,5738; 1726,5738; 1748,5738; 1768,5738"
  },

{ "type" : "pointille",
  "polyline" : " 1484,5696; 1502,5698; 1522,5698; 1542,5698; 1562,5698; 1584,5698; 1604,5698; 1624,5698; 1646,5696; 1666,5696; 1686,5696; 1708,5696; 1728,5696; 1748,5696; 1768,5696"
  },

{ "type" : "pointille",
  "polyline" : " 1956,5736; 1972,5738; 1994,5736; 2014,5736; 2034,5736; 2054,5736; 2076,5736; 2096,5736; 2116,5738; 2138,5736; 2158,5736"
  },

{ "type" : "pointille",
  "polyline" : " 1956,5652; 1972,5654; 1992,5654; 2014,5654; 2034,5654; 2054,5654; 2076,5656; 2096,5654; 2116,5654; 2136,5654; 2158,5654"
  },

{ "type" : "pointille",
  "polyline" : " 2296,5612; 2318,5612"
  },

{ "type" : "pointille",
  "polyline" : " 2298,5654; 2318,5654"
  },

{ "type" : "pointille",
  "polyline" : " 2298,5694; 2318,5694"
  },

{ "type" : "pointille",
  "polyline" : " 2298,5736; 2318,5736"
  },

{ "type" : "pointille",
  "polyline" : " 2298,5776; 2318,5776"
  },

{ "type" : "pointille",
  "polyline" : " 2378,5736; 2400,5734; 2420,5736"
  },

{ "type" : "pointille",
  "polyline" : " 2380,5778; 2400,5776; 2420,5776"
  },

{ "type" : "pointille",
  "polyline" : " 2460,5734; 2480,5734"
  },

{ "type" : "pointille",
  "polyline" : " 2460,5652; 2482,5652"
  },

{ "type" : "pointille",
  "polyline" : " 2460,5610; 2482,5610"
  },

{ "type" : "pointille",
  "polyline" : " 2462,5776; 2482,5776"
  },

{ "type" : "pointille",
  "polyline" : " 2462,5694; 2482,5694"
  },

{ "type" : "pointille",
  "polyline" : " 2542,5652; 2564,5652; 2584,5652"
  },

{ "type" : "pointille",
  "polyline" : " 2542,5694; 2564,5692; 2584,5694"
  },

{ "type" : "pointille",
  "polyline" : " 2544,5776; 2564,5776; 2584,5776"
  },

{ "type" : "pointille",
  "polyline" : " 2562,5734; 2584,5734"
  },

{ "type" : "pointille",
  "polyline" : " 2624,5652; 2644,5652; 2664,5652"
  },

{ "type" : "pointille",
  "polyline" : " 2624,5612; 2644,5612; 2664,5612"
  },

{ "type" : "pointille",
  "polyline" : " 2624,5776; 2644,5776; 2666,5776"
  },

{ "type" : "pointille",
  "polyline" : " 2624,5734; 2644,5734; 2664,5734"
  },

{ "type" : "pointille",
  "polyline" : " 2624,5694; 2644,5694; 2666,5694"
  },

{ "type" : "pointille",
  "polyline" : " 2710,5774; 2730,5776; 2750,5774; 2770,5774"
  },

{ "type" : "pointille",
  "polyline" : " 2810,5732; 2830,5732; 2852,5732; 2872,5732"
  },

{ "type" : "pointille",
  "polyline" : " 2810,5692; 2830,5692; 2850,5690; 2872,5690"
  },

{ "type" : "pointille",
  "polyline" : " 2810,5650; 2830,5650; 2852,5650; 2872,5650"
  },

{ "type" : "pointille",
  "polyline" : " 2810,5610; 2830,5610; 2852,5608; 2870,5608"
  },

{ "type" : "pointille",
  "polyline" : " 2810,5774; 2832,5774; 2852,5772; 2874,5774"
  },

{ "type" : "pointille",
  "polyline" : " 1192,5782; 1214,5784; 1234,5782; 1256,5782; 1276,5782; 1296,5782; 1316,5784; 1338,5782; 1358,5782; 1378,5782; 1398,5782; 1420,5782; 1440,5782; 1460,5782; 1482,5782; 1502,5780; 1522,5780; 1542,5780; 1564,5780; 1584,5780; 1604,5780; 1624,5780; 1644,5780; 1664,5780; 1686,5780; 1706,5778; 1726,5780; 1746,5780; 1768,5778; 1788,5778; 1808,5780; 1828,5780; 1850,5780; 1870,5780; 1890,5780; 1910,5780; 1932,5780; 1952,5778; 1972,5780; 1992,5778; 2014,5778; 2036,5778; 2056,5778; 2076,5778; 2096,5778; 2118,5778; 2138,5778; 2158,5778"
  },

{ "type" : "pointille",
  "polyline" : " 1318,5906; 1338,5906; 1358,5906; 1378,5906; 1400,5904; 1420,5904; 1440,5904; 1462,5904; 1480,5904; 1502,5904; 1524,5904; 1544,5904; 1564,5904; 1584,5902; 1606,5904; 1626,5902; 1646,5902; 1666,5902; 1688,5904; 1708,5902; 1728,5902; 1748,5902; 1770,5902"
  },

{ "type" : "pointille",
  "polyline" : " 1340,5946; 1360,5946; 1380,5946; 1400,5946; 1420,5946; 1442,5946; 1462,5946; 1482,5946; 1502,5946; 1524,5946; 1544,5946; 1564,5946; 1586,5944; 1604,5944; 1626,5944; 1646,5944; 1666,5944; 1688,5944; 1708,5944; 1728,5944; 1750,5944; 1770,5944"
  },

{ "type" : "pointille",
  "polyline" : " 1584,5862; 1606,5862; 1626,5862; 1646,5862; 1666,5862; 1688,5862; 1708,5862; 1730,5862; 1748,5862; 1770,5862"
  },

{ "type" : "pointille",
  "polyline" : " 1584,5822; 1604,5822; 1626,5820; 1646,5820; 1666,5820; 1686,5820; 1708,5820; 1728,5820; 1748,5820; 1768,5820"
  },

{ "type" : "pointille",
  "polyline" : " 1972,5944; 1992,5944; 2014,5944; 2034,5944; 2054,5944; 2074,5944; 2096,5944; 2116,5942; 2136,5944; 2158,5944"
  },

{ "type" : "pointille",
  "polyline" : " 1972,5862; 1992,5862; 2014,5862; 2034,5860; 2054,5860; 2074,5860; 2094,5860; 2116,5860; 2136,5860; 2158,5860"
  },

{ "type" : "pointille",
  "polyline" : " 2032,5902; 2054,5902; 2074,5900; 2094,5900; 2116,5902; 2136,5902; 2158,5902"
  },

{ "type" : "pointille",
  "polyline" : " 2216,5778; 2238,5778; 2258,5776"
  },

{ "type" : "pointille",
  "polyline" : " 2216,5944; 2236,5942; 2258,5942"
  },

{ "type" : "pointille",
  "polyline" : " 2298,5860; 2318,5858"
  },

{ "type" : "pointille",
  "polyline" : " 2298,5818; 2318,5818"
  },

{ "type" : "pointille",
  "polyline" : " 2298,5942; 2318,5942"
  },

{ "type" : "pointille",
  "polyline" : " 2380,5942; 2400,5940; 2422,5940"
  },

{ "type" : "pointille",
  "polyline" : " 2460,5860; 2480,5858"
  },

{ "type" : "pointille",
  "polyline" : " 2462,5940; 2482,5940"
  },

{ "type" : "pointille",
  "polyline" : " 2462,5900; 2482,5900"
  },

{ "type" : "pointille",
  "polyline" : " 2544,5900; 2564,5900; 2584,5898"
  },

{ "type" : "pointille",
  "polyline" : " 2544,5816; 2564,5818; 2584,5818"
  },

{ "type" : "pointille",
  "polyline" : " 2544,5858; 2564,5858; 2584,5858"
  },

{ "type" : "pointille",
  "polyline" : " 2544,5940; 2564,5940; 2584,5940"
  },

{ "type" : "pointille",
  "polyline" : " 2624,5938; 2646,5940; 2666,5938"
  },

{ "type" : "pointille",
  "polyline" : " 2626,5858; 2646,5858; 2666,5858"
  },

{ "type" : "pointille",
  "polyline" : " 2626,5898; 2646,5898; 2666,5898"
  },

{ "type" : "pointille",
  "polyline" : " 2626,5816; 2646,5816; 2666,5816"
  },

{ "type" : "pointille",
  "polyline" : " 2710,5938; 2730,5938; 2750,5938; 2772,5938"
  },

{ "type" : "pointille",
  "polyline" : " 2812,5898; 2834,5896; 2854,5896; 2874,5896"
  },

{ "type" : "pointille",
  "polyline" : " 2812,5814; 2832,5814; 2852,5814; 2872,5814"
  },

{ "type" : "pointille",
  "polyline" : " 2812,5856; 2832,5856; 2852,5854; 2874,5856"
  },

{ "type" : "pointille",
  "polyline" : " 2812,5938; 2834,5938; 2854,5938; 2874,5938"
  },

{ "type" : "pointille",
  "polyline" : " 1318,6028; 1338,6028; 1358,6028; 1380,6028; 1400,6028; 1420,6028; 1440,6028; 1462,6028; 1482,6028; 1502,6028; 1522,6028; 1542,6028; 1562,6028; 1584,6028; 1604,6028; 1624,6026; 1646,6028; 1666,6028; 1686,6028; 1706,6026; 1726,6026; 1746,6026; 1766,6026"
  },

{ "type" : "pointille",
  "polyline" : " 1318,6070; 1338,6070; 1358,6070; 1380,6070; 1400,6070; 1420,6070; 1440,6070; 1462,6070; 1482,6070; 1502,6070; 1522,6070; 1542,6070; 1562,6070; 1584,6068; 1604,6068; 1624,6068; 1644,6068; 1664,6068; 1686,6068; 1706,6068; 1726,6068; 1748,6068; 1768,6068"
  },

{ "type" : "pointille",
  "polyline" : " 1480,5988; 1502,5988; 1522,5986; 1542,5988; 1562,5986; 1582,5986; 1604,5986; 1624,5986; 1646,5986; 1666,5986; 1686,5986; 1706,5986; 1726,5986; 1746,5986; 1768,5986; 1788,5986; 1808,5986; 1830,5986; 1850,5986; 1870,5986; 1890,5986; 1912,5986; 1932,5986; 1952,5986; 1972,5986; 1994,5986; 2012,5984; 2034,5984; 2054,5986; 2074,5984; 2096,5984; 2116,5984; 2136,5984; 2158,5984"
  },

{ "type" : "pointille",
  "polyline" : " 1540,6110; 1560,6110; 1582,6110; 1602,6110; 1622,6110; 1642,6110; 1662,6110; 1684,6110; 1704,6110; 1724,6110; 1744,6108; 1766,6110; 1786,6110; 1806,6110; 1828,6110; 1848,6110; 1868,6108; 1890,6110; 1910,6108; 1930,6110; 1952,6110; 1972,6108; 1992,6108; 2012,6110; 2034,6110; 2052,6110; 2074,6110; 2094,6110; 2116,6110; 2136,6110; 2156,6108"
  },

{ "type" : "pointille",
  "polyline" : " 1958,6068; 1976,6066; 1992,6068; 2012,6068; 2034,6068; 2054,6068; 2074,6068; 2094,6068; 2116,6068; 2136,6068; 2156,6068"
  },

{ "type" : "pointille",
  "polyline" : " 2298,6108; 2320,6108"
  },

{ "type" : "pointille",
  "polyline" : " 2298,6066; 2318,6066"
  },

{ "type" : "pointille",
  "polyline" : " 2298,5984; 2320,5982"
  },

{ "type" : "pointille",
  "polyline" : " 2400,6066; 2422,6066"
  },

{ "type" : "pointille",
  "polyline" : " 2462,6066; 2484,6066"
  },

{ "type" : "pointille",
  "polyline" : " 2462,6108; 2484,6106"
  },

{ "type" : "pointille",
  "polyline" : " 2462,6022; 2482,6024"
  },

{ "type" : "pointille",
  "polyline" : " 2462,5980; 2482,5982"
  },

{ "type" : "pointille",
  "polyline" : " 2544,6064; 2564,6062; 2586,6066"
  },

{ "type" : "pointille",
  "polyline" : " 2544,6106; 2566,6108; 2586,6106"
  },

{ "type" : "pointille",
  "polyline" : " 2564,6022; 2584,6022"
  },

{ "type" : "pointille",
  "polyline" : " 2564,5982; 2586,5980"
  },

{ "type" : "pointille",
  "polyline" : " 2626,5980; 2646,5980; 2666,5980"
  },

{ "type" : "pointille",
  "polyline" : " 2626,6064; 2646,6062; 2668,6064"
  },

{ "type" : "pointille",
  "polyline" : " 2626,6022; 2646,6022; 2668,6022"
  },

{ "type" : "pointille",
  "polyline" : " 2626,6106; 2646,6106; 2668,6104"
  },

{ "type" : "pointille",
  "polyline" : " 2812,5978; 2834,5980; 2854,5980; 2874,5980"
  },

{ "type" : "pointille",
  "polyline" : " 2814,6062; 2836,6062; 2856,6062; 2876,6062"
  },

{ "type" : "pointille",
  "polyline" : " 2814,6018; 2834,6022; 2856,6022; 2876,6022"
  },

{ "type" : "pointille",
  "polyline" : " 2856,6104; 2876,6102"
  } 

]
}
